<!DOCTYPE html>
<html>
<!-- __ _ _ _ __| |_ (_)__ _____ 
    / _` | '_/ _| ' \| |\ V / -_)
    \__,_|_| \__|_||_|_| \_/\___| -->
<head>
  <title>Internet Archive Search: collection:internetarcade</title>
      <script src="//archive.org/includes/jquery-1.6.1.js" type="text/javascript"></script>
    <script src="//archive.org/includes/analytics.js?v=62995" type="text/javascript"></script>
    <link href="//archive.org/includes/archive.css?v=62995" rel="stylesheet" type="text/css"/>
  <link rel="SHORTCUT ICON" href="/images/glogo.jpg"/>
  </head>
<body class="Home ia-module navbar-no-margin-bottom bgEEE tiles">
   
<!--BEGIN HEADER 1-->
<table id="nunuh1" cellspacing="0" width="100%" border="0" cellpadding="0">
  <tbody>
    <tr> 
      <td id="logo">
        <a href="/"><img title="Internet Archive" alt="Internet Archive" src="/images/glogo2.png"/></a>
      </td>
      <td valign="bottom" id="navbg" style="position:relative">
        <table width="100%" border="0" cellpadding="5">
          <tr> 
            <td class="level1Header">
                            <div class="tab">
                <a href="http://archive.org/web/">Web</a>
              </div>
                            <div class="tab">
                <a href="https://archive.org/details/movies">Video</a>
              </div>
                            <div class="tab">
                <a href="https://archive.org/details/texts">Texts</a>
              </div>
                            <div class="tab">
                <a href="https://archive.org/details/audio">Audio</a>
              </div>
                            <div class="tab">
                <a href="https://archive.org/details/software">Software</a>
              </div>
                            <div class="tabsel backColor1">
                <a href="https://archive.org/about/">About</a>
              </div>
                            <div class="tab">
                <a href="https://archive.org/account/login.php">Account</a>
              </div>
                            <div class="tab">
                <a href="https://archive.org/details/tv"><img style="margin-right:2px;width:16px;height:15px" src="/images/tvnews.png"/>TVNews</a>
              </div>
                            <div class="tab">
                <a href="https://openlibrary.org"><img style="margin-right:2px;width:16px;height:16px" src="/images/ol.png"/>OpenLibrary</a>
              </div>
                          </td>
          </tr>
        </table>
      </td>
      <td style="width:80px; height:72px; vertical-align:middle; text-align:right">
        <a href="/search.php?query=collection%3Ainternetarcade&sort=-publicdate&page=15"><img title="Universal Access To All Knowledge" alt="Universal Access To All Knowledge" id="TRimg" src="/images/access.png"/></a>      </td>
    </tr>
  </tbody>
</table>

     
<!--BEGIN HEADER 2-->
<table width="100%" class="level2Header">
  <tbody>
    <tr>
      <td align="left" valign="top" class="level2HeaderLeft">
        <a class="level2Header" href="/">Home</a>
      </td>
      <td class="level2Header" style="width:100%;">
        <a href="https://archive.org/donate/index.php">Donate</a> | 
<a href="https://store.archive.org">Store</a> | 
<a href="https://blog.archive.org">Blog</a> | 
<a href="https://archive.org/about/faqs.php">FAQ</a> | 
<a href="https://archive.org/about/jobs.php">Jobs</a> | 
<a href="https://archive.org/about/volunteerpositions.php">Volunteer Positions</a> | 
<a href="https://archive.org/about/contact.php">Contact</a> | 
<a href="https://archive.org/about/bios.php">Bios</a> | 
<a href="https://archive.org/iathreads/forums.php">Forums</a> | 
<a href="https://archive.org/projects">Projects</a> | 
<a href="https://archive.org/about/terms.php">Terms, Privacy, & Copyright</a>
      </td>
    </tr>
  </tbody>
</table>
     

<!--BEGIN HEADER 3-->
<div class="level3HeaderColorBar"> </div>
<table cellspacing="0" width="100%" border="0" cellpadding="0">
  <tbody>
    <tr> 
      <td class="level3Header level3HeaderLeft">
        <form style="margin:0;padding:0;" action="http://archive.org/searchresults.php" id="searchform" method="post">
          <b>Search:</b>
          <input tabindex="1" size="25" name="search" value="collection:internetarcade" style="font-size: 8pt"/>
          <select tabindex="2" style="PADDING-TOP: 2px; font-size: 8pt;" name="mediatype">
            <option value="all">All Media Types</option>
            <option value="web">&nbsp;&nbsp;Wayback Machine</option>
            
            <option  value="movies">&nbsp;&nbsp;Video</option>
<option value="movies.animationandcartoons">&nbsp;&nbsp;&nbsp;&nbsp;Animation & Cartoons</option>
<option value="movies.artsandmusicvideos">&nbsp;&nbsp;&nbsp;&nbsp;Arts & Music</option>
<option value="movies.opensource_movies">&nbsp;&nbsp;&nbsp;&nbsp;Community Video</option>
<option value="movies.computersandtechvideos">&nbsp;&nbsp;&nbsp;&nbsp;Computers & Technology</option>
<option value="movies.culturalandacademicfilms">&nbsp;&nbsp;&nbsp;&nbsp;Cultural & Academic Films</option>
<option value="movies.ephemera">&nbsp;&nbsp;&nbsp;&nbsp;Ephemeral Films</option>
<option value="movies.moviesandfilms">&nbsp;&nbsp;&nbsp;&nbsp;Movies</option>
<option value="movies.newsandpublicaffairs">&nbsp;&nbsp;&nbsp;&nbsp;News & Public Affairs</option>
<option value="movies.prelinger">&nbsp;&nbsp;&nbsp;&nbsp;Prelinger Archives</option>
<option value="movies.spiritualityandreligion">&nbsp;&nbsp;&nbsp;&nbsp;Spirituality & Religion</option>
<option value="movies.sports">&nbsp;&nbsp;&nbsp;&nbsp;Sports Videos</option>
<option value="movies.television">&nbsp;&nbsp;&nbsp;&nbsp;Television</option>
<option value="movies.gamevideos">&nbsp;&nbsp;&nbsp;&nbsp;Videogame Videos</option>
<option value="movies.vlogs">&nbsp;&nbsp;&nbsp;&nbsp;Vlogs</option>
<option value="movies.youth_media">&nbsp;&nbsp;&nbsp;&nbsp;Youth Media</option>
<option  value="texts">&nbsp;&nbsp;Texts</option>
<option value="texts.americana">&nbsp;&nbsp;&nbsp;&nbsp;American Libraries</option>
<option value="texts.toronto">&nbsp;&nbsp;&nbsp;&nbsp;Canadian Libraries</option>
<option value="texts.universallibrary">&nbsp;&nbsp;&nbsp;&nbsp;Universal Library</option>
<option value="texts.opensource">&nbsp;&nbsp;&nbsp;&nbsp;Community Texts</option>
<option value="texts.gutenberg">&nbsp;&nbsp;&nbsp;&nbsp;Project Gutenberg</option>
<option value="texts.iacl">&nbsp;&nbsp;&nbsp;&nbsp;Children's Library</option>
<option value="texts.biodiversity">&nbsp;&nbsp;&nbsp;&nbsp;Biodiversity Heritage Library</option>
<option value="texts.additional_collections">&nbsp;&nbsp;&nbsp;&nbsp;Additional Collections</option>
<option  value="audio">&nbsp;&nbsp;Audio</option>
<option value="audio.audio_bookspoetry">&nbsp;&nbsp;&nbsp;&nbsp;Audio Books & Poetry</option>
<option value="audio.opensource_audio">&nbsp;&nbsp;&nbsp;&nbsp;Community Audio</option>
<option value="audio.audio_tech">&nbsp;&nbsp;&nbsp;&nbsp;Computers & Technology</option>
<option value="audio.GratefulDead">&nbsp;&nbsp;&nbsp;&nbsp;Grateful Dead</option>
<option value="audio.etree">&nbsp;&nbsp;&nbsp;&nbsp;Live Music Archive</option>
<option value="audio.audio_music">&nbsp;&nbsp;&nbsp;&nbsp;Music, Arts & Culture</option>
<option value="audio.netlabels">&nbsp;&nbsp;&nbsp;&nbsp;Netlabels</option>
<option value="audio.audio_news">&nbsp;&nbsp;&nbsp;&nbsp;News & Public Affairs</option>
<option value="audio.audio_foreign">&nbsp;&nbsp;&nbsp;&nbsp;Non-English Audio</option>
<option value="audio.audio_podcast">&nbsp;&nbsp;&nbsp;&nbsp;Podcasts</option>
<option value="audio.radioprograms">&nbsp;&nbsp;&nbsp;&nbsp;Radio Programs</option>
<option value="audio.audio_religion">&nbsp;&nbsp;&nbsp;&nbsp;Spirituality & Religion</option>
<option  value="education">&nbsp;&nbsp;Education</option>
<option value="education.msri">&nbsp;&nbsp;&nbsp;&nbsp;Math Lectures from MSRI</option>
<option value="education.chinese_u_lectures">&nbsp;&nbsp;&nbsp;&nbsp;Chinese University Lectures</option>
<option value="education.uchannel">&nbsp;&nbsp;&nbsp;&nbsp;UChannel</option>
<option value="education.ap_courses">&nbsp;&nbsp;&nbsp;&nbsp;AP Courses</option>
<option value="education.mit_ocw">&nbsp;&nbsp;&nbsp;&nbsp;MIT OpenCourseWare</option>
            
            <option value="forums" >Forums</option>
            <option value="faqs"   >FAQs</option>
          </select>
          <input tabindex="3" style="vertical-align:bottom; text-align:center; width:21px; height:21px; border:0px" name="gobutton" type="image" id="gobutton" value="Find" src="/images/search.png"/>
          <input type="hidden" name="limit" value="100"/>
          <input type="hidden" name="start" value="0"/>
          <input type="hidden" name="searchAll" value="yes"/>
          <input type="hidden" name="submit" value="this was submitted"/>
          <a href="http://archive.org/advancedsearch.php?q=collection:internetarcade" class="level3Header level3HeaderSearch">Advanced Search</a>
        </form>
      </td>

      
      

      <td class="level3Header level3HeaderUser2">
        <b>
          Anonymous User        </b>
        <span style="font-size:7pt; white-space:nowrap">
          (<a class="level3Header" href="https://archive.org/account/login.php">login</a>
          or
          <a class="level3Header" href="https://archive.org/account/login.createaccount.php">
            join us</a>)
        </span>
      </td>
      
  

      <!--upload files button-->
            <td class="level3Header level3HeaderUser2">
        <a alt="Share your Files with the Internet Archive" title="Share your Files with the Internet Archive" href="http://archive.org/create/"><div class="buttonB">Upload</div></a>
      </td>
      
    </tr>
  </tbody>
</table>

<div id="begPgSpcr" style="padding-bottom:17px; position:relative;"> </div>

<!--BEGIN PAGE-->

<div class="row posrel">
<div id="col2">
  <table cellpadding="0" cellspacing="0" class="searchResults">
    <tr><td colspan="2" class="headerRow">Search Results</td></tr>
    <tr><td class="infoCell">
<b>Results:</b> 701 through 750 of <b>903</b> (0.004 secs)<br/><b>You searched for:</b> collection:internetarcade</td></tr>


<tr><td colspan="2" class="pageRow"><a href="/search.php?query=collection%3Ainternetarcade&sort=-publicdate&amp;page=1">First</a> &nbsp;&nbsp;&nbsp;<a href="/search.php?query=collection%3Ainternetarcade&sort=-publicdate&amp;page=14">Prev</a> &nbsp;&nbsp;&nbsp;<a href="/search.php?query=collection%3Ainternetarcade&sort=-publicdate&amp;page=5">5</a> <a href="/search.php?query=collection%3Ainternetarcade&sort=-publicdate&amp;page=6">6</a> <a href="/search.php?query=collection%3Ainternetarcade&sort=-publicdate&amp;page=7">7</a> <a href="/search.php?query=collection%3Ainternetarcade&sort=-publicdate&amp;page=8">8</a> <a href="/search.php?query=collection%3Ainternetarcade&sort=-publicdate&amp;page=9">9</a> <a href="/search.php?query=collection%3Ainternetarcade&sort=-publicdate&amp;page=10">10</a> <a href="/search.php?query=collection%3Ainternetarcade&sort=-publicdate&amp;page=11">11</a> <a href="/search.php?query=collection%3Ainternetarcade&sort=-publicdate&amp;page=12">12</a> <a href="/search.php?query=collection%3Ainternetarcade&sort=-publicdate&amp;page=13">13</a> <a href="/search.php?query=collection%3Ainternetarcade&sort=-publicdate&amp;page=14">14</a> [15] <a href="/search.php?query=collection%3Ainternetarcade&sort=-publicdate&amp;page=16">16</a> <a href="/search.php?query=collection%3Ainternetarcade&sort=-publicdate&amp;page=17">17</a> <a href="/search.php?query=collection%3Ainternetarcade&sort=-publicdate&amp;page=18">18</a> <a href="/search.php?query=collection%3Ainternetarcade&sort=-publicdate&amp;page=19">19</a> &nbsp;&nbsp;&nbsp; <a href="/search.php?query=collection%3Ainternetarcade&sort=-publicdate&amp;page=16">Next</a>&nbsp;&nbsp;&nbsp; <a href="/search.php?query=collection%3Ainternetarcade&sort=-publicdate&amp;page=19">Last</a></td></tr>

    <tr>
      <td class="resultsCell">
        <table class="resultsTable">
<tr class="hitRow"><td class="numberCell"><img src="/images/mediatype_software.gif" alt="[software]"/></td><td class="hitCell"><a class="titleLink" href="/details/arcade_thehand">Internet Arcade: The Hand</a> - Game-A-Tron<br/><br/><span style="font-weight:bold;">Downloads:</span> 3 </td><td class="thumbCell"><img width="80" height="55" src="/serve/arcade_thehand/arcade_thehand.gif"/></td></tr>
<tr class="hitRow"><td class="numberCell"><img src="/images/mediatype_software.gif" alt="[software]"/></td><td class="hitCell"><a class="titleLink" href="/details/arcade_supertnk">Internet Arcade: Super Tank</a> - Video Games GmbH<br/><br/><span style="font-weight:bold;">Downloads:</span> 109,590 </td><td class="thumbCell"><img width="80" height="55" src="/serve/arcade_supertnk/arcade_supertnk.gif"/></td></tr>
<tr class="hitRow"><td class="numberCell"><img src="/images/mediatype_software.gif" alt="[software]"/></td><td class="hitCell"><a class="titleLink" href="/details/arcade_scobra">Internet Arcade: Super Cobra</a> - Konami<br/>Super Cobra (スーパーコブラ Sūpā Kobura?) is a 1981 horizontally scrolling shooter, arcade game. It was developed by Konami from the engine of the popular Scramble (with only a few modifications), and manufactured and distributed by Stern in North America. The game was a success, selling 12,337 video game arcade cabinets in the United States in four months, by October 2, 1981, becoming Stern's third best-selling arcade classic after Berzerk and Scramble...<br/><span style="font-weight:bold;">Downloads:</span> 113,288 </td><td class="thumbCell"><img width="80" height="55" src="/serve/arcade_scobra/arcade_scobra.gif"/></td></tr>
<tr class="hitRow"><td class="numberCell"><img src="/images/mediatype_software.gif" alt="[software]"/></td><td class="hitCell"><a class="titleLink" href="/details/arcade_stratgyx">Internet Arcade: Strategy X</a> - Konami<br/><br/><span style="font-weight:bold;">Downloads:</span> 109,103 </td><td class="thumbCell"><img width="80" height="55" src="/serve/arcade_stratgyx/arcade_stratgyx.gif"/></td></tr>
<tr class="hitRow"><td class="numberCell"><img src="/images/mediatype_software.gif" alt="[software]"/></td><td class="hitCell"><a class="titleLink" href="/details/arcade_spiders">Internet Arcade: Spiders</a> - Sigma Enterprises Inc.<br/><br/><span style="font-weight:bold;">Downloads:</span> 110,762 </td><td class="thumbCell"><img width="80" height="55" src="/serve/arcade_spiders/arcade_spiders.gif"/></td></tr>
<tr class="hitRow"><td class="numberCell"><img src="/images/mediatype_software.gif" alt="[software]"/></td><td class="hitCell"><a class="titleLink" href="/details/arcade_spaceskr">Internet Arcade: Space Seeker</a> - Taito Corporation<br/><br/><span style="font-weight:bold;">Downloads:</span> 8 </td><td class="thumbCell"><img width="80" height="55" src="/serve/arcade_spaceskr/arcade_spaceskr.gif"/></td></tr>
<tr class="hitRow"><td class="numberCell"><img src="/images/mediatype_software.gif" alt="[software]"/></td><td class="hitCell"><a class="titleLink" href="/details/arcade_spaceod">Internet Arcade: Space Odyssey</a> - Sega<br/><br/><span style="font-weight:bold;">Downloads:</span> 111,105 </td><td class="thumbCell"><img width="80" height="55" src="/serve/arcade_spaceod/arcade_spaceod.gif"/></td></tr>
<tr class="hitRow"><td class="numberCell"><img src="/images/mediatype_software.gif" alt="[software]"/></td><td class="hitCell"><a class="titleLink" href="/details/arcade_spacfury">Internet Arcade: Space Fury</a> - Sega<br/>Space Fury (J:スペースフューリー) is a multi-directional shooter arcade game created by Sega and released on June 17, 1981. The game was an early example of color vector graphics and it also featured speech synthesis. Gameplay The player controls a spaceship battling alien spacecraft. Like other early similar arcade games, it is controlled by four buttons: rotate left, rotate right, thrust and fire...<br/><span style="font-weight:bold;">Downloads:</span> 248,619 </td><td class="thumbCell"><img width="80" height="55" src="/serve/arcade_spacfury/arcade_spacfury.gif"/></td></tr>
<tr class="hitRow"><td class="numberCell"><img src="/images/mediatype_software.gif" alt="[software]"/></td><td class="hitCell"><a class="titleLink" href="/details/arcade_spacefrt">Internet Arcade: Space Fortress</a> - Century Electronics<br/><br/><span style="font-weight:bold;">Downloads:</span> 9 </td><td class="thumbCell"><img width="80" height="55" src="/serve/arcade_spacefrt/arcade_spacefrt.gif"/></td></tr>
<tr class="hitRow"><td class="numberCell"><img src="/images/mediatype_software.gif" alt="[software]"/></td><td class="hitCell"><a class="titleLink" href="/details/arcade_sdungeon">Internet Arcade: Space Dungeon</a> - Taito America Corporation<br/>Space Dungeon is a shoot 'em up arcade game released by Taito Corporation in 1981 and designed and programmed by Rex Battenberg. It was available both as a conversion kit and as a full arcade cabinet. Like Robotron: 2084 (1982), but preceding the release of that game, the controls for Space Dungeon are a pair of 8-directional joysticks: one for moving, one for shooting. Space Dungeon may have been the first twin-stick shooter...<br/><span style="font-weight:bold;">Downloads:</span> 114,602 </td><td class="thumbCell"><img width="80" height="55" src="/serve/arcade_sdungeon/arcade_sdungeon.gif"/></td></tr>
<tr class="hitRow"><td class="numberCell"><img src="/images/mediatype_software.gif" alt="[software]"/></td><td class="hitCell"><a class="titleLink" href="/details/arcade_spacecr">Internet Arcade: Space Cruiser</a> - Taito Corporation<br/><br/><span style="font-weight:bold;">Downloads:</span> 10 </td><td class="thumbCell"><img width="80" height="55" src="/serve/arcade_spacecr/arcade_spacecr.gif"/></td></tr>
<tr class="hitRow"><td class="numberCell"><img src="/images/mediatype_software.gif" alt="[software]"/></td><td class="hitCell"><a class="titleLink" href="/details/arcade_sbugger">Internet Arcade: Space Bugger</a> - Game-A-Tron<br/><br/><span style="font-weight:bold;">Downloads:</span> 113,781 </td><td class="thumbCell"><img width="80" height="55" src="/serve/arcade_sbugger/arcade_sbugger.gif"/></td></tr>
<tr class="hitRow"><td class="numberCell"><img src="/images/mediatype_software.gif" alt="[software]"/></td><td class="hitCell"><a class="titleLink" href="/details/arcade_solarfox">Internet Arcade: Solar Fox</a> - Bally Midway<br/><br/><span style="font-weight:bold;">Downloads:</span> 112,185 </td><td class="thumbCell"><img width="80" height="55" src="/serve/arcade_solarfox/arcade_solarfox.gif"/></td></tr>
<tr class="hitRow"><td class="numberCell"><img src="/images/mediatype_software.gif" alt="[software]"/></td><td class="hitCell"><a class="titleLink" href="/details/arcade_savanna">Internet Arcade: Savvana</a> - Olympia<br/><br/><span style="font-weight:bold;">Downloads:</span> 7 </td><td class="thumbCell"><img width="80" height="55" src="/serve/arcade_savanna/arcade_savanna.gif"/></td></tr>
<tr class="hitRow"><td class="numberCell"><img src="/images/mediatype_software.gif" alt="[software]"/></td><td class="hitCell"><a class="titleLink" href="/details/arcade_satansat">Internet Arcade: Satan of Saturn</a> - SNK<br/><br/><span style="font-weight:bold;">Downloads:</span> 4 </td><td class="thumbCell"><img width="80" height="55" src="/serve/arcade_satansat/arcade_satansat.gif"/></td></tr>
<tr class="hitRow"><td class="numberCell"><img src="/images/mediatype_software.gif" alt="[software]"/></td><td class="hitCell"><a class="titleLink" href="/details/arcade_route16">Internet Arcade: Route 16</a> - Tehkan / Sun Electronics (Centuri license)<br/><br/><span style="font-weight:bold;">Downloads:</span> 114,682 </td><td class="thumbCell"><img width="80" height="55" src="/serve/arcade_route16/arcade_route16.gif"/></td></tr>
<tr class="hitRow"><td class="numberCell"><img src="/images/mediatype_software.gif" alt="[software]"/></td><td class="hitCell"><a class="titleLink" href="/details/arcade_rockclim">Internet Arcade: Rock Climber</a> - Taito<br/><br/><span style="font-weight:bold;">Downloads:</span> 4 </td><td class="thumbCell"><img width="80" height="55" src="/serve/arcade_rockclim/arcade_rockclim.gif"/></td></tr>
<tr class="hitRow"><td class="numberCell"><img src="/images/mediatype_software.gif" alt="[software]"/></td><td class="hitCell"><a class="titleLink" href="/details/arcade_redclash">Internet Arcade: Red Clash</a> - Tehkan (Kaneko license)<br/><br/><span style="font-weight:bold;">Downloads:</span> 117,100 </td><td class="thumbCell"><img width="80" height="55" src="/serve/arcade_redclash/arcade_redclash.gif"/></td></tr>
<tr class="hitRow"><td class="numberCell"><img src="/images/mediatype_software.gif" alt="[software]"/></td><td class="hitCell"><a class="titleLink" href="/details/arcade_redalert">Internet Arcade: Red Alert</a> - Irem<br/><br/><span style="font-weight:bold;">Downloads:</span> 115,888 </td><td class="thumbCell"><img width="80" height="55" src="/serve/arcade_redalert/arcade_redalert.gif"/></td></tr>
<tr class="hitRow"><td class="numberCell"><img src="/images/mediatype_software.gif" alt="[software]"/></td><td class="hitCell"><a class="titleLink" href="/details/arcade_qix2">Internet Arcade: Qix II</a> - Taito America Corporation<br/><br/><span style="font-weight:bold;">Downloads:</span> 8 </td><td class="thumbCell"><img width="80" height="55" src="/serve/arcade_qix2/arcade_qix2.gif"/></td></tr>
<tr class="hitRow"><td class="numberCell"><img src="/images/mediatype_software.gif" alt="[software]"/></td><td class="hitCell"><a class="titleLink" href="/details/arcade_qix">Internet Arcade: Qix</a> - Taito America Corporation<br/>Qix is an arcade game, released by Taito America Corporation in 1981. The objective of Qix is to fence off, or “claim”, a supermajority of the playfield. At the start of each level, the playing field is a large, empty rectangle, containing the Qix — a sticklike entity that performs graceful but unpredictable motions within the confines of the rectangle. The player controls a small diamond-shaped marker that can move around the edges of the rectangle, with the goal to claim as much of the s...<br/><span style="font-weight:bold;">Downloads:</span> 254,512 </td><td class="thumbCell"><img width="80" height="55" src="/serve/arcade_qix/arcade_qix.gif"/></td></tr>
<tr class="hitRow"><td class="numberCell"><img src="/images/mediatype_software.gif" alt="[software]"/></td><td class="hitCell"><a class="titleLink" href="/details/arcade_olibochu">Internet Arcade: Oli-Boo-Chu</a> - Irem / GDI<br/><br/><span style="font-weight:bold;">Downloads:</span> 121,701 </td><td class="thumbCell"><img width="80" height="55" src="/serve/arcade_olibochu/arcade_olibochu.gif"/></td></tr>
<tr class="hitRow"><td class="numberCell"><img src="/images/mediatype_software.gif" alt="[software]"/></td><td class="hitCell"><a class="titleLink" href="/details/arcade_nrallyx">Internet Arcade: New Rally-X</a> - Namco<br/><br/><span style="font-weight:bold;">Downloads:</span> 5 </td><td class="thumbCell"><img width="80" height="55" src="/serve/arcade_nrallyx/arcade_nrallyx.gif"/></td></tr>
<tr class="hitRow"><td class="numberCell"><img src="/images/mediatype_software.gif" alt="[software]"/></td><td class="hitCell"><a class="titleLink" href="/details/arcade_nmouse">Internet Arcade: Naughty Mouse</a> - Amenip Nova Games Ltd.<br/><br/><span style="font-weight:bold;">Downloads:</span> 6 </td><td class="thumbCell"><img width="80" height="55" src="/serve/arcade_nmouse/arcade_nmouse.gif"/></td></tr>
<tr class="hitRow"><td class="numberCell"><img src="/images/mediatype_software.gif" alt="[software]"/></td><td class="hitCell"><a class="titleLink" href="/details/arcade_moonwar">Internet Arcade: Moonwar</a> - Stern Electronics<br/><br/><span style="font-weight:bold;">Downloads:</span> 122,638 </td><td class="thumbCell"><img width="80" height="55" src="/serve/arcade_moonwar/arcade_moonwar.gif"/></td></tr>
<tr class="hitRow"><td class="numberCell"><img src="/images/mediatype_software.gif" alt="[software]"/></td><td class="hitCell"><a class="titleLink" href="/details/arcade_mshuttle">Internet Arcade: Moon Shuttle</a> - Nichibutsu<br/><br/><span style="font-weight:bold;">Downloads:</span> 122,496 </td><td class="thumbCell"><img width="80" height="55" src="/serve/arcade_mshuttle/arcade_mshuttle.gif"/></td></tr>
<tr class="hitRow"><td class="numberCell"><img src="/images/mediatype_software.gif" alt="[software]"/></td><td class="hitCell"><a class="titleLink" href="/details/arcade_meteor">Internet Arcade: Meteoroids</a> - Venture Line<br/><br/><span style="font-weight:bold;">Downloads:</span> 8 </td><td class="thumbCell"><img width="80" height="55" src="/serve/arcade_meteor/arcade_meteor.gif"/></td></tr>
<tr class="hitRow"><td class="numberCell"><img src="/images/mediatype_software.gif" alt="[software]"/></td><td class="hitCell"><a class="titleLink" href="/details/arcade_mariner">Internet Arcade: Mariner</a> - Amenip (US Billiards Inc. license)<br/><br/><span style="font-weight:bold;">Downloads:</span> 7 </td><td class="thumbCell"><img width="80" height="55" src="/serve/arcade_mariner/arcade_mariner.gif"/></td></tr>
<tr class="hitRow"><td class="numberCell"><img src="/images/mediatype_software.gif" alt="[software]"/></td><td class="hitCell"><a class="titleLink" href="/details/arcade_marinedt">Internet Arcade: Marine Date</a> - Taito<br/><br/><span style="font-weight:bold;">Downloads:</span> 5 </td><td class="thumbCell"><img width="80" height="55" src="/serve/arcade_marinedt/arcade_marinedt.gif"/></td></tr>
<tr class="hitRow"><td class="numberCell"><img src="/images/mediatype_software.gif" alt="[software]"/></td><td class="hitCell"><a class="titleLink" href="/details/arcade_lnc">Internet Arcade: Lock N' Chase</a> - Data East Corporation<br/>Lock 'n' Chase is a 1981 maze arcade game developed and published by Data East in Japan in 1981, and was later published in North America by Taito. The game was later licensed to Mattel who produced the Intellivision and Atari 2600 home console versions in 1982 and an Apple II version in January 1983. Telegames later re-published the game for the Atari 2600 after acquiring rights from Mattel. Lock 'n' Chase was Data East's response to Pac-Man...<br/><span style="font-weight:bold;">Downloads:</span> 127,413 </td><td class="thumbCell"><img width="80" height="55" src="/serve/arcade_lnc/arcade_lnc.gif"/></td></tr>
<tr class="hitRow"><td class="numberCell"><img src="/images/mediatype_software.gif" alt="[software]"/></td><td class="hitCell"><a class="titleLink" href="/details/arcade_kopunch">Internet Arcade: KO Punch</a> - Sega<br/><br/><span style="font-weight:bold;">Downloads:</span> 5 </td><td class="thumbCell"><img width="80" height="55" src="/serve/arcade_kopunch/arcade_kopunch.gif"/></td></tr>
<tr class="hitRow"><td class="numberCell"><img src="/images/mediatype_software.gif" alt="[software]"/></td><td class="hitCell"><a class="titleLink" href="/details/arcade_kaos">Internet Arcade: Kaos</a> - Game Plan<br/><br/><span style="font-weight:bold;">Downloads:</span> 131,584 </td><td class="thumbCell"><img width="80" height="55" src="/serve/arcade_kaos/arcade_kaos.gif"/></td></tr>
<tr class="hitRow"><td class="numberCell"><img src="/images/mediatype_software.gif" alt="[software]"/></td><td class="hitCell"><a class="titleLink" href="/details/arcade_jungler">Internet Arcade: Jungler</a> - Konami<br/><br/><span style="font-weight:bold;">Downloads:</span> 132,479 </td><td class="thumbCell"><img width="80" height="55" src="/serve/arcade_jungler/arcade_jungler.gif"/></td></tr>
<tr class="hitRow"><td class="numberCell"><img src="/images/mediatype_software.gif" alt="[software]"/></td><td class="hitCell"><a class="titleLink" href="/details/arcade_jumpbug">Internet Arcade: Jump Bug</a> - Hoei (Rock-Ola license)<br/>Jump Bug was the first platform game to include smooth horizontal and vertical scrolling. It was developed by Alpha Denshi under contract for Hoei/Coreland and released to arcades in 1981. Gameplay A player controls a constantly bouncing car while driving through various environments including a city, pyramid and underwater. Unlike most other scrolling games of the time, the main character, a buggy is jumping constantly...<br/><span style="font-weight:bold;">Downloads:</span> 131,031 </td><td class="thumbCell"><img width="80" height="55" src="/serve/arcade_jumpbug/arcade_jumpbug.gif"/></td></tr>
<tr class="hitRow"><td class="numberCell"><img src="/images/mediatype_software.gif" alt="[software]"/></td><td class="hitCell"><a class="titleLink" href="/details/arcade_grchamp">Internet Arcade: Grand Champion</a> - Taito<br/><br/><span style="font-weight:bold;">Downloads:</span> 307,608 </td><td class="thumbCell"><img width="80" height="55" src="/serve/arcade_grchamp/arcade_grchamp.gif"/></td></tr>
<tr class="hitRow"><td class="numberCell"><img src="/images/mediatype_software.gif" alt="[software]"/></td><td class="hitCell"><a class="titleLink" href="/details/arcade_gmgalax">Internet Arcade: Ghostmuncher Galaxian</a> - Bootleg<br/><br/><span style="font-weight:bold;">Downloads:</span> 138,579 </td><td class="thumbCell"><img width="80" height="55" src="/serve/arcade_gmgalax/arcade_gmgalax.gif"/></td></tr>
<tr class="hitRow"><td class="numberCell"><img src="/images/mediatype_software.gif" alt="[software]"/></td><td class="hitCell"><a class="titleLink" href="/details/arcade_galaga">Internet Arcade: Galaga</a> - Namco (Midway license)<br/>Galaga (ギャラガ Gyaraga) is a fixed shooter arcade game developed and published by Namco in Japan and published by Midway in North America in 1981. It is the sequel to Galaxian, released in 1979. The gameplay of Galaga puts the player in control of a spacecraft which is situated at the bottom of the screen. At the beginning of each stage, the area is empty, but over time, enemy aliens will arrive in formation, and once all of the enemies arrive on screen, they will come down at the player's...<br/><span style="font-weight:bold;">Downloads:</span> 139,282 </td><td class="thumbCell"><img width="80" height="55" src="/serve/arcade_galaga/arcade_galaga.gif"/></td></tr>
<tr class="hitRow"><td class="numberCell"><img src="/images/mediatype_software.gif" alt="[software]"/></td><td class="hitCell"><a class="titleLink" href="/details/arcade_fnkyfish">Internet Arcade: Funky Fish</a> - Sun Electronics<br/><br/><span style="font-weight:bold;">Downloads:</span> 6 </td><td class="thumbCell"><img width="80" height="55" src="/serve/arcade_fnkyfish/arcade_fnkyfish.gif"/></td></tr>
<tr class="hitRow"><td class="numberCell"><img src="/images/mediatype_software.gif" alt="[software]"/></td><td class="hitCell"><a class="titleLink" href="/details/arcade_friskyt">Internet Arcade: Frisky Tom</a> - Nichibutsu<br/>Frisky Tom was a 1981 arcade game by Nichibutsu. The object of the game is to provide enough water for a shower by crawling along a network of plumbing pipes and picking up/replacing loose pieces. Various types of mice are the game's antagonists, trying to thwart Tom in different ways: knocking pipes loose to disrupt the water flow, jumping down to fall on him, or setting a bomb to blow up the entire plumbing arrangement...<br/><span style="font-weight:bold;">Downloads:</span> 138,424 </td><td class="thumbCell"><img width="80" height="55" src="/serve/arcade_friskyt/arcade_friskyt.gif"/></td></tr>
<tr class="hitRow"><td class="numberCell"><img src="/images/mediatype_software.gif" alt="[software]"/></td><td class="hitCell"><a class="titleLink" href="/details/arcade_fantasy">Internet Arcade: Fantasy</a> - SNK<br/>Fantasy is a 1981 Action/Adventure arcade game developed by Rock-Ola which featured only a joystick and no buttons for the player to interact with (similarly to Pac-Man and Frogger). The game featured a rendition of the popular "Funkytown" song.<br/><span style="font-weight:bold;">Downloads:</span> 141,078 </td><td class="thumbCell"><img width="80" height="55" src="/serve/arcade_fantasy/arcade_fantasy.gif"/></td></tr>
<tr class="hitRow"><td class="numberCell"><img src="/images/mediatype_software.gif" alt="[software]"/></td><td class="hitCell"><a class="titleLink" href="/details/arcade_enigma2">Internet Arcade: Enigma II</a> - Zilec Electronics<br/>Description A vertical space battle game where the player controls a ship at the bottom of the screen and fires at various enemy ships, alien creatures and even the mother ship. Game Play After the mother ship is hit four times a refueling ship comes across the screen that you must thrust up and dock with. You have to avoid all the "stars" while doing so and hit precisely at the docking point. You only get one chance at the passing refueling ship...<br/><span style="font-weight:bold;">Downloads:</span> 140,814 </td><td class="thumbCell"><img width="80" height="55" src="/serve/arcade_enigma2/arcade_enigma2.gif"/></td></tr>
<tr class="hitRow"><td class="numberCell"><img src="/images/mediatype_software.gif" alt="[software]"/></td><td class="hitCell"><a class="titleLink" href="/details/arcade_demoneye">Internet Arcade: Demoneye-X</a> - Irem<br/><br/><span style="font-weight:bold;">Downloads:</span> 11 </td><td class="thumbCell"><img width="80" height="55" src="/serve/arcade_demoneye/arcade_demoneye.gif"/></td></tr>
<tr class="hitRow"><td class="numberCell"><img src="/images/mediatype_software.gif" alt="[software]"/></td><td class="hitCell"><a class="titleLink" href="/details/arcade_cosmos">Internet Arcade: Cosmos</a> - Century Electronics<br/>Destroy swarms of aliens and asteroids. If there are too many enemies on the screen, use the time warp to slow all your foes down.<br/><span style="font-weight:bold;">Downloads:</span> 146,327 </td><td class="thumbCell"><img width="80" height="55" src="/serve/arcade_cosmos/arcade_cosmos.gif"/></td></tr>
<tr class="hitRow"><td class="numberCell"><img src="/images/mediatype_software.gif" alt="[software]"/></td><td class="hitCell"><a class="titleLink" href="/details/arcade_ckong">Internet Arcade: Crazy Kong</a> - Bootleg<br/>Crazy Kong (クレイジーコング Kureijī Kongu?) is an arcade game created by Falcon, released in 1981 and is similar to Nintendo's Donkey Kong. Although commonly mistaken as a bootleg version, the game is officially licensed for non-US markets[1] and is based on different hardware. The game retains all of the gameplay elements of Donkey Kong, but has all of the graphics redrawn and re-colorized...<br/><span style="font-weight:bold;">Downloads:</span> 148,396 </td><td class="thumbCell"><img width="80" height="55" src="/serve/arcade_ckong/arcade_ckong.gif"/></td></tr>
<tr class="hitRow"><td class="numberCell"><img src="/images/mediatype_software.gif" alt="[software]"/></td><td class="hitCell"><a class="titleLink" href="/details/arcade_cavenger">Internet Arcade: Cosmic Avenger</a> - Universal<br/>You fly over mountain tops and through caves dodging enemy space ships and missiles fired from the ground. Cosmic Avenger is a 1981 arcade game developed and published by Universal. Legacy Cosmic Avenger was ported to the ColecoVision video game console. Wes Hupp holds the official record for this game with 117,290 points on November 17, 1982. Reception Mark Bussler from Classic Game Room notes that Cosmic Avenger is the first continuous horizontal side-scrolling space shooter (though it is actu...<br/><span style="font-weight:bold;">Downloads:</span> 151,478 </td><td class="thumbCell"><img width="80" height="55" src="/serve/arcade_cavenger/arcade_cavenger.gif"/></td></tr>
<tr class="hitRow"><td class="numberCell"><img src="/images/mediatype_software.gif" alt="[software]"/></td><td class="hitCell"><a class="titleLink" href="/details/arcade_colony7">Internet Arcade: Colony 7</a> - Taito<br/>Colony 7 is an arcade shooter game by Taito Corporation released in 1981 that is in many ways a combination of two of the most popular shoot 'em up games of the time, containing elements of both Taito's own Space Invaders and Atari's Missile Command. The main innovation of Colony 7 was its extended weaponry arsenal. This gave the player the choice to change between several different weapons, with each one needing to be purchased separately as microtransactions through the arcade coin slot.<br/><span style="font-weight:bold;">Downloads:</span> 148,384 </td><td class="thumbCell"><img width="80" height="55" src="/serve/arcade_colony7/arcade_colony7.gif"/></td></tr>
<tr class="hitRow"><td class="numberCell"><img src="/images/mediatype_software.gif" alt="[software]"/></td><td class="hitCell"><a class="titleLink" href="/details/arcade_atlantis">Internet Arcade: Battle of Atlantis</a> - Comsoft<br/>Battle of Atlantis is a scrolling shooter arcade game released by Game World Manufacturing / Comsoft in 1981, similar to "Scramble". It was designed and programmed by Andy Thomason. Gameplay The mission of the game is to finish the six tables (levels) by shooting enemies. Through all six tables, build up your bonus by blowing-up the fuel tanks. Table 1 : Avoid and destroy the floating mines. Table 2 : Exploding sharks appear as well as the destroyers...<br/><span style="font-weight:bold;">Downloads:</span> 156,228 </td><td class="thumbCell"><img width="80" height="55" src="/serve/arcade_atlantis/arcade_atlantis.gif"/></td></tr>
<tr class="hitRow"><td class="numberCell"><img src="/images/mediatype_software.gif" alt="[software]"/></td><td class="hitCell"><a class="titleLink" href="/details/arcade_amidar">Internet Arcade: Amidar</a> - Konami<br/>Amidar is an arcade game programmed by Konami and published in 1981 by Stern. Its basic format is similar to that of Pac-Man: the player moves around a fixed rectilinear lattice, attempting to visit each location on the board while avoiding the enemies. When each spot has been visited, the player moves to the next level. The game and its name have their roots in the Japanese lot drawing game Amidakuji...<br/><span style="font-weight:bold;">Downloads:</span> 412,127 </td><td class="thumbCell"><img width="80" height="55" src="/serve/arcade_amidar/arcade_amidar.gif"/></td></tr>
<tr class="hitRow"><td class="numberCell"><img src="/images/mediatype_software.gif" alt="[software]"/></td><td class="hitCell"><a class="titleLink" href="/details/arcade_dkong">Internet Arcade: Donkey Kong</a> - Nintendo<br/>Donkey Kong (Japanese: ドンキーコング Hepburn: Donkī Kongu) is an arcade game released by Nintendo in 1981. It is an early example of the platform game genre, as the gameplay focuses on maneuvering the main character across a series of platforms while dodging and jumping over obstacles. In the game, Jumpman (since renamed Mario) must rescue a damsel in distress, Lady (now named Pauline), from a giant ape named Donkey Kong...<br/><span style="font-weight:bold;">Downloads:</span> 4,305 </td><td class="thumbCell"><img width="80" height="55" src="/serve/arcade_dkong/arcade_dkong.gif"/></td></tr>
<tr class="hitRow"><td class="numberCell"><img src="/images/mediatype_software.gif" alt="[software]"/></td><td class="hitCell"><a class="titleLink" href="/details/arcade_005">Internet Arcade: 005</a> - Sega<br/><br/><span style="font-weight:bold;">Downloads:</span> 60 </td><td class="thumbCell"><img width="80" height="55" src="/serve/arcade_005/arcade_005.gif"/></td></tr>
        </table><!--/#.resultsTable-->
      </td><!--/#.resultsCell-->
    </tr>

    

<tr><td colspan="2" class="pageRow"><a href="/search.php?query=collection%3Ainternetarcade&sort=-publicdate&amp;page=1">First</a> &nbsp;&nbsp;&nbsp;<a href="/search.php?query=collection%3Ainternetarcade&sort=-publicdate&amp;page=14">Prev</a> &nbsp;&nbsp;&nbsp;<a href="/search.php?query=collection%3Ainternetarcade&sort=-publicdate&amp;page=5">5</a> <a href="/search.php?query=collection%3Ainternetarcade&sort=-publicdate&amp;page=6">6</a> <a href="/search.php?query=collection%3Ainternetarcade&sort=-publicdate&amp;page=7">7</a> <a href="/search.php?query=collection%3Ainternetarcade&sort=-publicdate&amp;page=8">8</a> <a href="/search.php?query=collection%3Ainternetarcade&sort=-publicdate&amp;page=9">9</a> <a href="/search.php?query=collection%3Ainternetarcade&sort=-publicdate&amp;page=10">10</a> <a href="/search.php?query=collection%3Ainternetarcade&sort=-publicdate&amp;page=11">11</a> <a href="/search.php?query=collection%3Ainternetarcade&sort=-publicdate&amp;page=12">12</a> <a href="/search.php?query=collection%3Ainternetarcade&sort=-publicdate&amp;page=13">13</a> <a href="/search.php?query=collection%3Ainternetarcade&sort=-publicdate&amp;page=14">14</a> [15] <a href="/search.php?query=collection%3Ainternetarcade&sort=-publicdate&amp;page=16">16</a> <a href="/search.php?query=collection%3Ainternetarcade&sort=-publicdate&amp;page=17">17</a> <a href="/search.php?query=collection%3Ainternetarcade&sort=-publicdate&amp;page=18">18</a> <a href="/search.php?query=collection%3Ainternetarcade&sort=-publicdate&amp;page=19">19</a> &nbsp;&nbsp;&nbsp; <a href="/search.php?query=collection%3Ainternetarcade&sort=-publicdate&amp;page=16">Next</a>&nbsp;&nbsp;&nbsp; <a href="/search.php?query=collection%3Ainternetarcade&sort=-publicdate&amp;page=19">Last</a></td></tr>

  </table><!--/#.searchResults-->
</div><!--/#col2-->
<div id="col3b">

    <a style="padding-left:25px;" href="/advancedsearch.php?q=collection%3Ainternetarcade#raw">Advanced&nbsp;search</a>
  
  <table>
    <tr><td class="relatedInfoCell">
<div class="box well well-sm"><h4>Sort results by:</h4><a href="/search.php?query=collection%3Ainternetarcade">Relevance</a><br/><a href="/search.php?query=collection%3Ainternetarcade&amp;sort=-avg_rating%3B-num_reviews">Average rating</a><br/><a href="/search.php?query=collection%3Ainternetarcade&amp;sort=-downloads">Download count</a><br/><a href="/search.php?query=collection%3Ainternetarcade&amp;sort=-date">Date</a><br/>&gt; Date added<br/></div>
<div class="box well well-sm"><h4>Group results by:</h4>&gt; Relevance<br/><a href="/search.php?query=collection%3Ainternetarcade&amp;groupby=mediatype">Mediatype</a><br/><a href="/search.php?query=collection%3Ainternetarcade&amp;groupby=collection">Collection</a><br/></div>
<div class="box well well-sm"><h4>Refine your search:</h4><h5>Collection</h5><a href="/search.php?query=collection%3A%22internetarcade%22%20AND%20%28collection%3Ainternetarcade%29">internetarcade</a><br/><a href="/search.php?query=collection%3A%22stream_only%22%20AND%20%28collection%3Ainternetarcade%29">stream_only</a><br/></br><h5>Creator</h5><a href="/search.php?query=creator%3A%22Game-A-Tron%22%20AND%20%28collection%3Ainternetarcade%29">Game-A-Tron</a><br/><a href="/search.php?query=creator%3A%22Video%20Games%20GmbH%22%20AND%20%28collection%3Ainternetarcade%29">Video Games GmbH</a><br/><a href="/search.php?query=creator%3A%22Konami%22%20AND%20%28collection%3Ainternetarcade%29">Konami</a><br/><a href="/search.php?query=creator%3A%22Sigma%20Enterprises%20Inc.%22%20AND%20%28collection%3Ainternetarcade%29">Sigma Enterprises Inc.</a><br/><a href="/search.php?query=creator%3A%22Taito%20Corporation%22%20AND%20%28collection%3Ainternetarcade%29">Taito Corporation</a><br/></br><h5>File formats</h5><a href="/search.php?sort=-publicdate&amp;page=15&amp;query=%28collection%3Ainternetarcade%29%20AND%20format%3Amp3">MP3 files</a><br/><a href="/search.php?sort=-publicdate&amp;page=15&amp;query=%28collection%3Ainternetarcade%29%20AND%20%28format%3Aflac%20OR%20format%3Ashorten%20OR%20format%3Amp3%20OR%20format%3Aogg%29">Any audio file</a><br/><a href="/search.php?sort=-publicdate&amp;page=15&amp;query=%28collection%3Ainternetarcade%29%20AND%20%28format%3Ampeg%20OR%20format%3Aquicktime%20OR%20format%3Areal%29">Movie files</a><br/><a href="/search.php?sort=-publicdate&amp;page=15&amp;query=%28collection%3Ainternetarcade%29%20AND%20%28format%3Ajpeg%20OR%20format%3Ajpg%20OR%20format%3Agif%20OR%20format%3Apng%29">Images</a><br/><br/></div>
<div class="box well well-sm"><h4>Related collections</h4><a href="/search.php?query=collection%3A%22stream_only%22">stream_only</a><br/><a href="/search.php?query=collection%3A%22internetarcade%22">internetarcade</a><br/></div>
<div class="box well well-sm"><h4>Related creators</h4><a href="/search.php?query=creator%3A%22Taito%22">Taito</a><br/><a href="/search.php?query=creator%3A%22Sega%22">Sega</a><br/><a href="/search.php?query=creator%3A%22Konami%22">Konami</a><br/><a href="/search.php?query=creator%3A%22Taito%20America%20Corporation%22">Taito America Corporation</a><br/><a href="/search.php?query=creator%3A%22Irem%22">Irem</a><br/></div>
<div class="box well well-sm"><h4>Related mediatypes</h4><a href="/search.php?query=mediatype%3A%22software%22">software</a><br/></div>
<div class="box well well-sm"><h4>Options</h4><a href="/search.php?set_option=search_no_thumbs&amp;option_value=1">Turn off thumbnails</a><br/><a href="/search.php?set_option=search_show_source&amp;option_value=1">Show 'source' field</a><br/></div>
</td></tr></table></div><!--/#col3b-->
</table>
</div>

</div><!--/.posrel-->
