<!DOCTYPE html>
<html>
<!-- __ _ _ _ __| |_ (_)__ _____ 
    / _` | '_/ _| ' \| |\ V / -_)
    \__,_|_| \__|_||_|_| \_/\___| -->
<head>
  <title>Internet Archive Search: collection:internetarcade</title>
      <script src="//archive.org/includes/jquery-1.6.1.js" type="text/javascript"></script>
    <script src="//archive.org/includes/analytics.js?v=62995" type="text/javascript"></script>
    <link href="//archive.org/includes/archive.css?v=62995" rel="stylesheet" type="text/css"/>
  <link rel="SHORTCUT ICON" href="/images/glogo.jpg"/>
  </head>
<body class="Home ia-module navbar-no-margin-bottom bgEEE tiles">
   
<!--BEGIN HEADER 1-->
<table id="nunuh1" cellspacing="0" width="100%" border="0" cellpadding="0">
  <tbody>
    <tr> 
      <td id="logo">
        <a href="/"><img title="Internet Archive" alt="Internet Archive" src="/images/glogo2.png"/></a>
      </td>
      <td valign="bottom" id="navbg" style="position:relative">
        <table width="100%" border="0" cellpadding="5">
          <tr> 
            <td class="level1Header">
                            <div class="tab">
                <a href="http://archive.org/web/">Web</a>
              </div>
                            <div class="tab">
                <a href="https://archive.org/details/movies">Video</a>
              </div>
                            <div class="tab">
                <a href="https://archive.org/details/texts">Texts</a>
              </div>
                            <div class="tab">
                <a href="https://archive.org/details/audio">Audio</a>
              </div>
                            <div class="tab">
                <a href="https://archive.org/details/software">Software</a>
              </div>
                            <div class="tabsel backColor1">
                <a href="https://archive.org/about/">About</a>
              </div>
                            <div class="tab">
                <a href="https://archive.org/account/login.php">Account</a>
              </div>
                            <div class="tab">
                <a href="https://archive.org/details/tv"><img style="margin-right:2px;width:16px;height:15px" src="/images/tvnews.png"/>TVNews</a>
              </div>
                            <div class="tab">
                <a href="https://openlibrary.org"><img style="margin-right:2px;width:16px;height:16px" src="/images/ol.png"/>OpenLibrary</a>
              </div>
                          </td>
          </tr>
        </table>
      </td>
      <td style="width:80px; height:72px; vertical-align:middle; text-align:right">
        <a href="/search.php?query=collection%3Ainternetarcade&sort=-publicdate&page=17"><img title="Universal Access To All Knowledge" alt="Universal Access To All Knowledge" id="TRimg" src="/images/access.png"/></a>      </td>
    </tr>
  </tbody>
</table>

     
<!--BEGIN HEADER 2-->
<table width="100%" class="level2Header">
  <tbody>
    <tr>
      <td align="left" valign="top" class="level2HeaderLeft">
        <a class="level2Header" href="/">Home</a>
      </td>
      <td class="level2Header" style="width:100%;">
        <a href="https://archive.org/donate/index.php">Donate</a> | 
<a href="https://store.archive.org">Store</a> | 
<a href="https://blog.archive.org">Blog</a> | 
<a href="https://archive.org/about/faqs.php">FAQ</a> | 
<a href="https://archive.org/about/jobs.php">Jobs</a> | 
<a href="https://archive.org/about/volunteerpositions.php">Volunteer Positions</a> | 
<a href="https://archive.org/about/contact.php">Contact</a> | 
<a href="https://archive.org/about/bios.php">Bios</a> | 
<a href="https://archive.org/iathreads/forums.php">Forums</a> | 
<a href="https://archive.org/projects">Projects</a> | 
<a href="https://archive.org/about/terms.php">Terms, Privacy, & Copyright</a>
      </td>
    </tr>
  </tbody>
</table>
     

<!--BEGIN HEADER 3-->
<div class="level3HeaderColorBar"> </div>
<table cellspacing="0" width="100%" border="0" cellpadding="0">
  <tbody>
    <tr> 
      <td class="level3Header level3HeaderLeft">
        <form style="margin:0;padding:0;" action="http://archive.org/searchresults.php" id="searchform" method="post">
          <b>Search:</b>
          <input tabindex="1" size="25" name="search" value="collection:internetarcade" style="font-size: 8pt"/>
          <select tabindex="2" style="PADDING-TOP: 2px; font-size: 8pt;" name="mediatype">
            <option value="all">All Media Types</option>
            <option value="web">&nbsp;&nbsp;Wayback Machine</option>
            
            <option  value="movies">&nbsp;&nbsp;Video</option>
<option value="movies.animationandcartoons">&nbsp;&nbsp;&nbsp;&nbsp;Animation & Cartoons</option>
<option value="movies.artsandmusicvideos">&nbsp;&nbsp;&nbsp;&nbsp;Arts & Music</option>
<option value="movies.opensource_movies">&nbsp;&nbsp;&nbsp;&nbsp;Community Video</option>
<option value="movies.computersandtechvideos">&nbsp;&nbsp;&nbsp;&nbsp;Computers & Technology</option>
<option value="movies.culturalandacademicfilms">&nbsp;&nbsp;&nbsp;&nbsp;Cultural & Academic Films</option>
<option value="movies.ephemera">&nbsp;&nbsp;&nbsp;&nbsp;Ephemeral Films</option>
<option value="movies.moviesandfilms">&nbsp;&nbsp;&nbsp;&nbsp;Movies</option>
<option value="movies.newsandpublicaffairs">&nbsp;&nbsp;&nbsp;&nbsp;News & Public Affairs</option>
<option value="movies.prelinger">&nbsp;&nbsp;&nbsp;&nbsp;Prelinger Archives</option>
<option value="movies.spiritualityandreligion">&nbsp;&nbsp;&nbsp;&nbsp;Spirituality & Religion</option>
<option value="movies.sports">&nbsp;&nbsp;&nbsp;&nbsp;Sports Videos</option>
<option value="movies.television">&nbsp;&nbsp;&nbsp;&nbsp;Television</option>
<option value="movies.gamevideos">&nbsp;&nbsp;&nbsp;&nbsp;Videogame Videos</option>
<option value="movies.vlogs">&nbsp;&nbsp;&nbsp;&nbsp;Vlogs</option>
<option value="movies.youth_media">&nbsp;&nbsp;&nbsp;&nbsp;Youth Media</option>
<option  value="texts">&nbsp;&nbsp;Texts</option>
<option value="texts.americana">&nbsp;&nbsp;&nbsp;&nbsp;American Libraries</option>
<option value="texts.toronto">&nbsp;&nbsp;&nbsp;&nbsp;Canadian Libraries</option>
<option value="texts.universallibrary">&nbsp;&nbsp;&nbsp;&nbsp;Universal Library</option>
<option value="texts.opensource">&nbsp;&nbsp;&nbsp;&nbsp;Community Texts</option>
<option value="texts.gutenberg">&nbsp;&nbsp;&nbsp;&nbsp;Project Gutenberg</option>
<option value="texts.iacl">&nbsp;&nbsp;&nbsp;&nbsp;Children's Library</option>
<option value="texts.biodiversity">&nbsp;&nbsp;&nbsp;&nbsp;Biodiversity Heritage Library</option>
<option value="texts.additional_collections">&nbsp;&nbsp;&nbsp;&nbsp;Additional Collections</option>
<option  value="audio">&nbsp;&nbsp;Audio</option>
<option value="audio.audio_bookspoetry">&nbsp;&nbsp;&nbsp;&nbsp;Audio Books & Poetry</option>
<option value="audio.opensource_audio">&nbsp;&nbsp;&nbsp;&nbsp;Community Audio</option>
<option value="audio.audio_tech">&nbsp;&nbsp;&nbsp;&nbsp;Computers & Technology</option>
<option value="audio.GratefulDead">&nbsp;&nbsp;&nbsp;&nbsp;Grateful Dead</option>
<option value="audio.etree">&nbsp;&nbsp;&nbsp;&nbsp;Live Music Archive</option>
<option value="audio.audio_music">&nbsp;&nbsp;&nbsp;&nbsp;Music, Arts & Culture</option>
<option value="audio.netlabels">&nbsp;&nbsp;&nbsp;&nbsp;Netlabels</option>
<option value="audio.audio_news">&nbsp;&nbsp;&nbsp;&nbsp;News & Public Affairs</option>
<option value="audio.audio_foreign">&nbsp;&nbsp;&nbsp;&nbsp;Non-English Audio</option>
<option value="audio.audio_podcast">&nbsp;&nbsp;&nbsp;&nbsp;Podcasts</option>
<option value="audio.radioprograms">&nbsp;&nbsp;&nbsp;&nbsp;Radio Programs</option>
<option value="audio.audio_religion">&nbsp;&nbsp;&nbsp;&nbsp;Spirituality & Religion</option>
<option  value="education">&nbsp;&nbsp;Education</option>
<option value="education.msri">&nbsp;&nbsp;&nbsp;&nbsp;Math Lectures from MSRI</option>
<option value="education.chinese_u_lectures">&nbsp;&nbsp;&nbsp;&nbsp;Chinese University Lectures</option>
<option value="education.uchannel">&nbsp;&nbsp;&nbsp;&nbsp;UChannel</option>
<option value="education.ap_courses">&nbsp;&nbsp;&nbsp;&nbsp;AP Courses</option>
<option value="education.mit_ocw">&nbsp;&nbsp;&nbsp;&nbsp;MIT OpenCourseWare</option>
            
            <option value="forums" >Forums</option>
            <option value="faqs"   >FAQs</option>
          </select>
          <input tabindex="3" style="vertical-align:bottom; text-align:center; width:21px; height:21px; border:0px" name="gobutton" type="image" id="gobutton" value="Find" src="/images/search.png"/>
          <input type="hidden" name="limit" value="100"/>
          <input type="hidden" name="start" value="0"/>
          <input type="hidden" name="searchAll" value="yes"/>
          <input type="hidden" name="submit" value="this was submitted"/>
          <a href="http://archive.org/advancedsearch.php?q=collection:internetarcade" class="level3Header level3HeaderSearch">Advanced Search</a>
        </form>
      </td>

      
      

      <td class="level3Header level3HeaderUser2">
        <b>
          Anonymous User        </b>
        <span style="font-size:7pt; white-space:nowrap">
          (<a class="level3Header" href="https://archive.org/account/login.php">login</a>
          or
          <a class="level3Header" href="https://archive.org/account/login.createaccount.php">
            join us</a>)
        </span>
      </td>
      
  

      <!--upload files button-->
            <td class="level3Header level3HeaderUser2">
        <a alt="Share your Files with the Internet Archive" title="Share your Files with the Internet Archive" href="http://archive.org/create/"><div class="buttonB">Upload</div></a>
      </td>
      
    </tr>
  </tbody>
</table>

<div id="begPgSpcr" style="padding-bottom:17px; position:relative;"> </div>

<!--BEGIN PAGE-->

<div class="row posrel">
<div id="col2">
  <table cellpadding="0" cellspacing="0" class="searchResults">
    <tr><td colspan="2" class="headerRow">Search Results</td></tr>
    <tr><td class="infoCell">
<b>Results:</b> 801 through 850 of <b>903</b> (0 secs)<br/><b>You searched for:</b> collection:internetarcade</td></tr>


<tr><td colspan="2" class="pageRow"><a href="/search.php?query=collection%3Ainternetarcade&sort=-publicdate&amp;page=1">First</a> &nbsp;&nbsp;&nbsp;<a href="/search.php?query=collection%3Ainternetarcade&sort=-publicdate&amp;page=16">Prev</a> &nbsp;&nbsp;&nbsp;<a href="/search.php?query=collection%3Ainternetarcade&sort=-publicdate&amp;page=7">7</a> <a href="/search.php?query=collection%3Ainternetarcade&sort=-publicdate&amp;page=8">8</a> <a href="/search.php?query=collection%3Ainternetarcade&sort=-publicdate&amp;page=9">9</a> <a href="/search.php?query=collection%3Ainternetarcade&sort=-publicdate&amp;page=10">10</a> <a href="/search.php?query=collection%3Ainternetarcade&sort=-publicdate&amp;page=11">11</a> <a href="/search.php?query=collection%3Ainternetarcade&sort=-publicdate&amp;page=12">12</a> <a href="/search.php?query=collection%3Ainternetarcade&sort=-publicdate&amp;page=13">13</a> <a href="/search.php?query=collection%3Ainternetarcade&sort=-publicdate&amp;page=14">14</a> <a href="/search.php?query=collection%3Ainternetarcade&sort=-publicdate&amp;page=15">15</a> <a href="/search.php?query=collection%3Ainternetarcade&sort=-publicdate&amp;page=16">16</a> [17] <a href="/search.php?query=collection%3Ainternetarcade&sort=-publicdate&amp;page=18">18</a> <a href="/search.php?query=collection%3Ainternetarcade&sort=-publicdate&amp;page=19">19</a> &nbsp;&nbsp;&nbsp; <a href="/search.php?query=collection%3Ainternetarcade&sort=-publicdate&amp;page=18">Next</a>&nbsp;&nbsp;&nbsp; <a href="/search.php?query=collection%3Ainternetarcade&sort=-publicdate&amp;page=19">Last</a></td></tr>

    <tr>
      <td class="resultsCell">
        <table class="resultsTable">
<tr class="hitRow"><td class="numberCell"><img src="/images/mediatype_software.gif" alt="[software]"/></td><td class="hitCell"><a class="titleLink" href="/details/arcade_skydiver">Internet Arcade: Skydiver</a> - Atari<br/>Sky Diver is an arcade video game designed by Owen Rubin, and released by Atari, Inc. in 1978. It was ported to Atari 2600 in the same year by Jim Huether. Its interface is a simple third-person view of a parachuting drop zone. Sky Diver is a two-player game, although one player can play. The object of Sky Diver is to jump out of a plane, release a parachute and land on the landing pad. To get higher points, the player must release the parachute closer to the ground...<br/><span style="font-weight:bold;">Downloads:</span> 251,044 </td><td class="thumbCell"><img width="80" height="55" src="/serve/arcade_skydiver/arcade_skydiver.gif"/></td></tr>
<tr class="hitRow"><td class="numberCell"><img src="/images/mediatype_software.gif" alt="[software]"/></td><td class="hitCell"><a class="titleLink" href="/details/arcade_sstrangr">Internet Arcade: Space Stranger</a> - Yachiyo Electronics, Ltd.<br/><br/><span style="font-weight:bold;">Downloads:</span> 109,802 </td><td class="thumbCell"><img width="80" height="55" src="/serve/arcade_sstrangr/arcade_sstrangr.gif"/></td></tr>
<tr class="hitRow"><td class="numberCell"><img src="/images/mediatype_software.gif" alt="[software]"/></td><td class="hitCell"><a class="titleLink" href="/details/arcade_orbit">Internet Arcade: Orbit</a> - Atari<br/><br/><span style="font-weight:bold;">Downloads:</span> 120,138 </td><td class="thumbCell"><img width="80" height="55" src="/serve/arcade_orbit/arcade_orbit.gif"/></td></tr>
<tr class="hitRow"><td class="numberCell"><img src="/images/mediatype_software.gif" alt="[software]"/></td><td class="hitCell"><a class="titleLink" href="/details/arcade_frogs">Internet Arcade: Frogs</a> - Gremlin<br/>Frogs is a single-player action / platform arcade game released by Sega-Gremlin in 1978. It is the first video game with a jumping character (predating Donkey Kong by 3 years), which by some definitions could make it the first platform game. The player controls a frog on lilypads and attempts to catch (with the frog's tongue and while jumping) various insects (butterflies and dragonflies) worth different amounts of points in a set amount of time...<br/><span style="font-weight:bold;">Downloads:</span> 139,428 </td><td class="thumbCell"><img width="80" height="55" src="/serve/arcade_frogs/arcade_frogs.gif"/></td></tr>
<tr class="hitRow"><td class="numberCell"><img src="/images/mediatype_software.gif" alt="[software]"/></td><td class="hitCell"><a class="titleLink" href="/details/arcade_firetrk">Internet Arcade: Firetruck</a> - Atari<br/>Fire Truck is a black-and-white 1978 arcade game. It was developed and published by Atari, Inc. According to GamesRadar, it was the earliest video game with cooperative gameplay where two players were forced to work together. A one-player version of the game, called Smokey Joe was also released. This was internally identical to Fire Truck. While there is no real "goal" to the game, Fire Truck is considered to be a "racing game" where the two players must cooperate to drive the truck through traf...<br/><span style="font-weight:bold;">Downloads:</span> 139,770 </td><td class="thumbCell"><img width="80" height="55" src="/serve/arcade_firetrk/arcade_firetrk.gif"/></td></tr>
<tr class="hitRow"><td class="numberCell"><img src="/images/mediatype_software.gif" alt="[software]"/></td><td class="hitCell"><a class="titleLink" href="/details/arcade_mgolf">Internet Arcade: Atari Mini-Golf (Prototype)</a> - Atari<br/>A black and white prototype miniture golf game from Atari.<br/><span style="font-weight:bold;">Downloads:</span> 9 </td><td class="thumbCell"><img width="80" height="55" src="/serve/arcade_mgolf/arcade_mgolf.gif"/></td></tr>
<tr class="hitRow"><td class="numberCell"><img src="/images/mediatype_software.gif" alt="[software]"/></td><td class="hitCell"><a class="titleLink" href="/details/arcade_superbug">Internet Arcade: Super Bug</a> - Atari (Kee Games)<br/>Super Bug is an arcade game developed, manufactured, and released by Atari in 1977. The game was originally titled City Driver. Originally titled City Driver, the video game Super Bug was the first to be designed and programmed by Howard Delman. Delman stated in an interview that he had to learn a lot of the game development process during the nine months it took to create Super Bug. uper Bug is a simple black and white driving game, very innovative during the time of its release...<br/><span style="font-weight:bold;">Downloads:</span> 109,967 </td><td class="thumbCell"><img width="80" height="55" src="/serve/arcade_superbug/arcade_superbug.gif"/></td></tr>
<tr class="hitRow"><td class="numberCell"><img src="/images/mediatype_software.gif" alt="[software]"/></td><td class="hitCell"><a class="titleLink" href="/details/arcade_avalnche">Internet Arcade: Avalanche</a> - Atari<br/>Avalanche is an arcade game released by Atari Inc. in 1978. The object is to catch avalanching rocks with a controllable set of paddles that diminish in number and size as the rocks fall faster and faster. Technology Avalanche is housed in a custom cabinet that includes 2 large lit start buttons and a rotary controller. The side art and bezel feature groupings of rocks with extending lines meant to convey the motion of falling rocks...<br/><span style="font-weight:bold;">Downloads:</span> 155,580 </td><td class="thumbCell"><img width="80" height="55" src="/serve/arcade_avalnche/arcade_avalnche.gif"/></td></tr>
<tr class="hitRow"><td class="numberCell"><img src="/images/mediatype_software.gif" alt="[software]"/></td><td class="hitCell"><a class="titleLink" href="/details/arcade_starcrus">Internet Arcade: Star Cruiser</a> - RamTek<br/><br/><span style="font-weight:bold;">Downloads:</span> 109,607 </td><td class="thumbCell"><img width="80" height="55" src="/serve/arcade_starcrus/arcade_starcrus.gif"/></td></tr>
<tr class="hitRow"><td class="numberCell"><img src="/images/mediatype_software.gif" alt="[software]"/></td><td class="hitCell"><a class="titleLink" href="/details/arcade_sprint4">Internet Arcade: Sprint 4</a> - Atari<br/>Related to Sprint 2: Sprint 2 is a 2 player overhead-view arcade racer released in 1976 by Kee Games, a wholly owned subsidiary of Atari. Sprint 4 and Sprint 8, a 4 player and 8 player version respectively, were released in 1977. Both were full color raster versions of the game.<br/><span style="font-weight:bold;">Downloads:</span> 248,520 </td><td class="thumbCell"><img width="80" height="55" src="/serve/arcade_sprint4/arcade_sprint4.gif"/></td></tr>
<tr class="hitRow"><td class="numberCell"><img src="/images/mediatype_software.gif" alt="[software]"/></td><td class="hitCell"><a class="titleLink" href="/details/arcade_poolshrk">Internet Arcade: Pool Shark</a> - Atari<br/><br/><span style="font-weight:bold;">Downloads:</span> 120,160 </td><td class="thumbCell"><img width="80" height="55" src="/serve/arcade_poolshrk/arcade_poolshrk.gif"/></td></tr>
<tr class="hitRow"><td class="numberCell"><img src="/images/mediatype_software.gif" alt="[software]"/></td><td class="hitCell"><a class="titleLink" href="/details/arcade_hustle">Internet Arcade: Blockade</a> - Gremlin<br/><br/><span style="font-weight:bold;">Downloads:</span> 134,378 </td><td class="thumbCell"><img width="80" height="55" src="/serve/arcade_hustle/arcade_hustle.gif"/></td></tr>
<tr class="hitRow"><td class="numberCell"><img src="/images/mediatype_software.gif" alt="[software]"/></td><td class="hitCell"><a class="titleLink" href="/details/arcade_embargo">Internet Arcade: Embargo</a> - Cinematronics<br/><br/><span style="font-weight:bold;">Downloads:</span> 5 </td><td class="thumbCell"><img width="80" height="55" src="/serve/arcade_embargo/arcade_embargo.gif"/></td></tr>
<tr class="hitRow"><td class="numberCell"><img src="/images/mediatype_software.gif" alt="[software]"/></td><td class="hitCell"><a class="titleLink" href="/details/arcade_dragrace">Internet Arcade: Drag Race</a> - Atari (Kee Games)<br/><br/><span style="font-weight:bold;">Downloads:</span> 4 </td><td class="thumbCell"><img width="80" height="55" src="/serve/arcade_dragrace/arcade_dragrace.gif"/></td></tr>
<tr class="hitRow"><td class="numberCell"><img src="/images/mediatype_software.gif" alt="[software]"/></td><td class="hitCell"><a class="titleLink" href="/details/arcade_depthch">Internet Arcade: Depth Charge</a> - Gremlin<br/>Depthcharge is a single-player arcade game released in 1977 by Gremlin Industries for the Sega VIC Dual system board. Taito licensed the game and released it as Sub Hunter in Japan. The game, which uses a black-and-white CRT display, presents the player with a cut-away view of a section of ocean, on the surface of which is a destroyer with submarines passing beneath it. The player drops depth charges (up to six at a time) to destroy the submarines and moves the ship back and forth in order to av...<br/><span style="font-weight:bold;">Downloads:</span> 143,778 </td><td class="thumbCell"><img width="80" height="55" src="/serve/arcade_depthch/arcade_depthch.gif"/></td></tr>
<tr class="hitRow"><td class="numberCell"><img src="/images/mediatype_software.gif" alt="[software]"/></td><td class="hitCell"><a class="titleLink" href="/details/arcade_canyon">Internet Arcade: Canyon Bomber</a> - Atari<br/>Canyon Bomber is a black-and-white 1978 arcade game, developed and published by Atari. The game was ported to the Atari 2600, also in 1978. The player and an opponent fly over a canyon made up of layers of numbered, circular "bricks". Using the paddle controllers, the players drop bombs in the canyon, breaking bricks. Players earn points for the number and types of bricks destroyed. The player with the highest score wins...<br/><span style="font-weight:bold;">Downloads:</span> 150,879 </td><td class="thumbCell"><img width="80" height="55" src="/serve/arcade_canyon/arcade_canyon.gif"/></td></tr>
<tr class="hitRow"><td class="numberCell"><img src="/images/mediatype_software.gif" alt="[software]"/></td><td class="hitCell"><a class="titleLink" href="/details/arcade_copsnrob">Internet Arcade: Cops n' Robbers</a> - Atari<br/><br/><span style="font-weight:bold;">Downloads:</span> 5 </td><td class="thumbCell"><img width="80" height="55" src="/serve/arcade_copsnrob/arcade_copsnrob.gif"/></td></tr>
<tr class="hitRow"><td class="numberCell"><img src="/images/mediatype_software.gif" alt="[software]"/></td><td class="hitCell"><a class="titleLink" href="/details/arcade_flyball">Internet Arcade: Flyball</a> - Atari<br/><br/><span style="font-weight:bold;">Downloads:</span> 8 </td><td class="thumbCell"><img width="80" height="55" src="/serve/arcade_flyball/arcade_flyball.gif"/></td></tr>
<tr class="hitRow"><td class="numberCell"><img src="/images/mediatype_software.gif" alt="[software]"/></td><td class="hitCell"><a class="titleLink" href="/details/arcade_dominos">Internet Arcade: Dominos</a> - Atari<br/>Dominos is an arcade game by Atari Inc., originally released in 1977. Gameplay is a variation of the snake genre, in which players compete by surrounding each other with lines of dominos. Players change direction via a set of four directional buttons representing up, down, right, and left respectively. A player loses when they hit a wall, their own dominos, or their opponent's, at which point all the dominos in their line "fall" down.<br/><span style="font-weight:bold;">Downloads:</span> 142,487 </td><td class="thumbCell"><img width="80" height="55" src="/serve/arcade_dominos/arcade_dominos.gif"/></td></tr>
<tr class="hitRow"><td class="numberCell"><img src="/images/mediatype_software.gif" alt="[software]"/></td><td class="hitCell"><a class="titleLink" href="/details/arcade_sprint2">Internet Arcade: Sprint 2</a> - Atari (Kee Games)<br/>Sprint 2 is a 2 player overhead-view arcade racer released in 1976 by Kee Games, a wholly owned subsidiary of Atari. Technology Sprint 2 evolved from Gran Trak 10 and Gran Trak 20, but included a microprocessor (the 6502), a first for racing games. This allowed Sprint 2 to include two computer-controlled cars, better graphics, and more tracks. Unlike Gran Trak, this machine did not have brake pedals, but the players could still make their cars "fishtail" by turning their steering wheels abruptly...<br/><span style="font-weight:bold;">Downloads:</span> 110,079 </td><td class="thumbCell"><img width="80" height="55" src="/serve/arcade_sprint2/arcade_sprint2.gif"/></td></tr>
<tr class="hitRow"><td class="numberCell"><img src="/images/mediatype_software.gif" alt="[software]"/></td><td class="hitCell"><a class="titleLink" href="/details/arcade_hitme">Internet Arcade: Hit Me</a> - RamTek<br/>A one- to four-player card game where each player is matched against the dealer. Initially, each player is given a number of chips ranging from 5 to 40 and allocated a number of hands also ranging from 5 to 40. The card game played is 21 in which the object is to come as close to a total point count of 21 without exceeding it.<br/><span style="font-weight:bold;">Downloads:</span> 7 </td><td class="thumbCell"><img width="80" height="55" src="/serve/arcade_hitme/arcade_hitme.gif"/></td></tr>
<tr class="hitRow"><td class="numberCell"><img src="/images/mediatype_software.gif" alt="[software]"/></td><td class="hitCell"><a class="titleLink" href="/details/arcade_unclepoo">Internet Arcade: Uncle Poo</a> - Diatec<br/><br/><span style="font-weight:bold;">Downloads:</span> 23 </td><td class="thumbCell"><img width="80" height="55" src="/serve/arcade_unclepoo/arcade_unclepoo.gif"/></td></tr>
<tr class="hitRow"><td class="numberCell"><img src="/images/mediatype_software.gif" alt="[software]"/></td><td class="hitCell"><a class="titleLink" href="/details/arcade_ccastles">Internet Arcade: Crystal Castles</a> - Atari<br/>Crystal Castles is an arcade game released by Atari, Inc. in 1983. The player controls a cartoon bear by the name of Bentley Bear, who has to collect gems located throughout trimetric-projected rendered castles while avoiding enemies out to get him as well as the gems. Crystal Castles is notable for being one of the first arcade action games with an actual ending, whereas most games of the time either continued indefinitely, ended in what was termed a "kill screen" or simply just restarted from ...<br/><span style="font-weight:bold;">Downloads:</span> 356,490 </td><td class="thumbCell"><img width="80" height="55" src="/serve/arcade_ccastles/arcade_ccastles.gif"/></td></tr>
<tr class="hitRow"><td class="numberCell"><img src="/images/mediatype_software.gif" alt="[software]"/></td><td class="hitCell"><a class="titleLink" href="/details/arcade_chaknpop">Internet Arcade: Chack n' Pop</a> - Taito Corporation<br/>Chack'n Pop (ちゃっくんぽっぷ Chakkunpoppu) is an arcade game released by Taito in 1983, considered to be an ancestor of Bubble Bobble due to the appearance of many similar enemies and Bubble Bobble's duplication of a Chack'n Pop level. The arcade rom set also contains unused graphics for the mechanical wind-up "Zen-Chan" that later appeared in Bubble Bobble. Chack'n, a small yellow creature (later recolored green) with extendable legs must traverse a series of single-screen mazes...<br/><span style="font-weight:bold;">Downloads:</span> 149,897 </td><td class="thumbCell"><img width="80" height="55" src="/serve/arcade_chaknpop/arcade_chaknpop.gif"/></td></tr>
<tr class="hitRow"><td class="numberCell"><img src="/images/mediatype_software.gif" alt="[software]"/></td><td class="hitCell"><a class="titleLink" href="/details/arcade_blaster">Internet Arcade: Blaster</a> - Williams / Vid Kidz<br/>Blaster is an arcade game developed by Eugene Jarvis and released by Williams in 1983. The game is a 3D shooter set in outer space and is a quasi-sequel to Robotron: 2084. The objective is to shoot enemies and avoid obstacles in twenty differently-goaled levels in order to reach paradise. The game had advanced graphics at the time of release, that used scaled sprites to display the impression of three dimensional worlds and asteroid fields...<br/><span style="font-weight:bold;">Downloads:</span> 153,374 </td><td class="thumbCell"><img width="80" height="55" src="/serve/arcade_blaster/arcade_blaster.gif"/></td></tr>
<tr class="hitRow"><td class="numberCell"><img src="/images/mediatype_software.gif" alt="[software]"/></td><td class="hitCell"><a class="titleLink" href="/details/arcade_victroad">Internet Arcade: Victory Road</a> - SNK<br/>Victory Road (怒号層圏 Dogō Sōken, lit. "Bellowing Atmosphere") is the sequel to Ikari Warriors. The objective is to defeat the enemy aliens using grenades and other weapons. The story directly picks up at the ending of Ikari Warriors. Congratuled by General Kawasaki for rescuing him, Paul and Vince return home to their native country in a plane arranged by the general. Expecting a hero's welcome upon arriving home, a mysterious storm appears and they are hurtled thousands of years into th...<br/><span style="font-weight:bold;">Downloads:</span> 105,861 </td><td class="thumbCell"><img width="80" height="55" src="/serve/arcade_victroad/arcade_victroad.gif"/></td></tr>
<tr class="hitRow"><td class="numberCell"><img src="/images/mediatype_software.gif" alt="[software]"/></td><td class="hitCell"><a class="titleLink" href="/details/arcade_bublbobl">Internet Arcade: Bubble Bobble</a> - Taito Corporation<br/>Bubble Bobble (バブルボブル Baburu Boburu) is an arcade game by Taito, first released in 1986 and later ported to numerous home computers and game consoles. The game, starring the twin Bubble Dragons Bub (Bubblun) (バブルン Baburun) and Bob (Bobblun) (ボブルン Boburun), is an action-platform game in which players travel through one hundred different stages, blowing and bursting bubbles, dodging enemies and collecting a variety of items...<br/><span style="font-weight:bold;">Downloads:</span> 4,791 </td><td class="thumbCell"><img width="80" height="55" src="/serve/arcade_bublbobl/arcade_bublbobl.gif"/></td></tr>
<tr class="hitRow"><td class="numberCell"><img src="/images/mediatype_software.gif" alt="[software]"/></td><td class="hitCell"><a class="titleLink" href="/details/arcade_bionicc">Internet Arcade: Bionic Commando</a> - Capcom<br/>Bionic Commando, released in Japan as Top Secret (Japanese: トップシークレット, Hepburn: Toppu Shīkuretto?), is a 1987 action platform game released by Capcom for the arcades. It was later released for several home computers (ported by Software Creations and published by Go!). Capcom later produced a home version for the Nintendo Entertainment System, also titled Bionic Commando, that was drastically different from the original arcade game...<br/><span style="font-weight:bold;">Downloads:</span> 382,848 </td><td class="thumbCell"><img width="80" height="55" src="/serve/arcade_bionicc/arcade_bionicc.gif"/></td></tr>
<tr class="hitRow"><td class="numberCell"><img src="/images/mediatype_software.gif" alt="[software]"/></td><td class="hitCell"><a class="titleLink" href="/details/arcade_outrun">Internet Arcade: Out Run</a> - Sega<br/><br/><span style="font-weight:bold;">Downloads:</span> 122,099 </td><td class="thumbCell"><img width="80" height="55" src="/serve/arcade_outrun/arcade_outrun.gif"/></td></tr>
<tr class="hitRow"><td class="numberCell"><img src="/images/mediatype_software.gif" alt="[software]"/></td><td class="hitCell"><a class="titleLink" href="/details/arcade_gberet">Internet Arcade: Green Beret (Rush n' Attack)</a> - Konami<br/>Rush'n Attack, originally released in Japan and Europe as Green Beret (グリーンベレー Gurīn Berē), is an action/platform arcade game released by Konami in 1985. Rush'n Attack is remembered for its Cold War setting (the title is a play on "Russian attack") and its reliance on the player using a knife to dispatch enemies. A sequel was released for the arcades titled M.I.A.: Missing in Action in 1988...<br/><span style="font-weight:bold;">Downloads:</span> 138,807 </td><td class="thumbCell"><img width="80" height="55" src="/serve/arcade_gberet/arcade_gberet.gif"/></td></tr>
<tr class="hitRow"><td class="numberCell"><img src="/images/mediatype_software.gif" alt="[software]"/></td><td class="hitCell"><a class="titleLink" href="/details/arcade_hangon">Internet Arcade: Hang-On</a> - Sega<br/>Hang-On (ハングオン Hangu On?) is an arcade game released by Sega in 1985. It is the world's first full-body-experience video game. In the game, the player controls a motorcycle against time and other computer-controlled bikes. It was one of the first arcade games to use 16-bit graphics and Sega's "Super Scaler" technology that allowed pseudo-3D sprite-scaling at high frame rates. The game was also built into some versions of the Sega Master System...<br/><span style="font-weight:bold;">Downloads:</span> 301,627 </td><td class="thumbCell"><img width="80" height="55" src="/serve/arcade_hangon/arcade_hangon.gif"/></td></tr>
<tr class="hitRow"><td class="numberCell"><img src="/images/mediatype_software.gif" alt="[software]"/></td><td class="hitCell"><a class="titleLink" href="/details/arcade_sharrier">Internet Arcade: Space Harrier</a> - Sega<br/>Space Harrier (スペースハリアー Supēsu Hariā) is a third-person rail shooter game, released by Sega in 1985. It was produced by Yu Suzuki, responsible for many popular Sega games. It spawned several sequels: Space Harrier 3-D (1988), Space Harrier II (1988), and the spin-off Planet Harriers (2000). Space Harrier was originally made for the arcades, and later saw ports to many home game systems...<br/><span style="font-weight:bold;">Downloads:</span> 251,897 <nobr class="stars"><img src="/images/star.png" alt="5.00 out of 5 stars" title="5.00 out of 5 stars"/><img src="/images/star.png" alt="5.00 out of 5 stars" title="5.00 out of 5 stars"/><img src="/images/star.png" alt="5.00 out of 5 stars" title="5.00 out of 5 stars"/><img src="/images/star.png" alt="5.00 out of 5 stars" title="5.00 out of 5 stars"/><img src="/images/star.png" alt="5.00 out of 5 stars" title="5.00 out of 5 stars"/></nobr><span style="font-size:8pt;">(2 reviews)</span></td><td class="thumbCell"><img width="80" height="55" src="/serve/arcade_sharrier/arcade_sharrier.gif"/></td></tr>
<tr class="hitRow"><td class="numberCell"><img src="/images/mediatype_software.gif" alt="[software]"/></td><td class="hitCell"><a class="titleLink" href="/details/arcade_bombjack">Internet Arcade: Bomb Jack</a> - Tehkan<br/>Bomb Jack (ボンジャック Bon Jakku?) is an arcade platform game that was released in 1984 by Tehkan (known today as Tecmo). It was followed by two official sequels, the console and computer title Mighty Bomb Jack, and the arcade game Bomb Jack Twin and the licensed for computers only Bomb Jack II. Plot and gameplay The player controls Jack, a superhero who can leap and glide. Someone has planted 24 bombs at famous tourist sites (the Sphinx and Great Pyramids, the Acropolis, Neuschwanstein C...<br/><span style="font-weight:bold;">Downloads:</span> 152,764 </td><td class="thumbCell"><img width="80" height="55" src="/serve/arcade_bombjack/arcade_bombjack.gif"/></td></tr>
<tr class="hitRow"><td class="numberCell"><img src="/images/mediatype_software.gif" alt="[software]"/></td><td class="hitCell"><a class="titleLink" href="/details/arcade_arkanoid">Internet Arcade: Arkanoid</a> - Taito Corporation<br/>Arkanoid (アルカノイド Arukanoido) is an arcade game developed by Taito in 1986. It expanded upon Atari's Breakout games of the 1970s by adding power-ups, different types of bricks, and a variety of level layouts. The title refers to a doomed "mothership" from which the player's ship, the Vaus, escapes. The player controls the "Vaus", a space vessel that acts as the game's "paddle" which prevents a ball from falling from the playing field, attempting to bounce it against a number of bricks...<br/><span style="font-weight:bold;">Downloads:</span> 157,084 </td><td class="thumbCell"><img width="80" height="55" src="/serve/arcade_arkanoid/arcade_arkanoid.gif"/></td></tr>
<tr class="hitRow"><td class="numberCell"><img src="/images/mediatype_software.gif" alt="[software]"/></td><td class="hitCell"><a class="titleLink" href="/details/arcade_tinklpit">Internet Arcade: Tinkle Pit</a> - Namco<br/>Tinkle Pit (ティンクルピット) is an arcade game that was released by Namco in 1993 only in Japan. In Tinkle Pit, an evil wizard spawns monsters in a tiny village. The nameless protagonist of Tinkle Pit chooses to go on a world-saving quest to defeat the wizard and his minions. He is accompanied by an oversized, anthropomorphic sleigh bell as his weapon. The game's storyline is written in Japanese whilst the game itself employs mostly English text...<br/><span style="font-weight:bold;">Downloads:</span> 11 </td><td class="thumbCell"><img width="80" height="55" src="/serve/arcade_tinklpit/arcade_tinklpit.gif"/></td></tr>
<tr class="hitRow"><td class="numberCell"><img src="/images/mediatype_software.gif" alt="[software]"/></td><td class="hitCell"><a class="titleLink" href="/details/arcade_supdrapo">Internet Arcade: Super Draw Poker</a> - Valadon Automation (Stern Electronics license)<br/><br/><span style="font-weight:bold;">Downloads:</span> 5 </td><td class="thumbCell"><img width="80" height="55" src="/serve/arcade_supdrapo/arcade_supdrapo.gif"/></td></tr>
<tr class="hitRow"><td class="numberCell"><img src="/images/mediatype_software.gif" alt="[software]"/></td><td class="hitCell"><a class="titleLink" href="/details/arcade_mikie">Internet Arcade: Mikie</a> - Konami<br/><br/><span style="font-weight:bold;">Downloads:</span> 126,061 </td><td class="thumbCell"><img width="80" height="55" src="/serve/arcade_mikie/arcade_mikie.gif"/></td></tr>
<tr class="hitRow"><td class="numberCell"><img src="/images/mediatype_software.gif" alt="[software]"/></td><td class="hitCell"><a class="titleLink" href="/details/arcade_toobin">Internet Arcade: Toobin'</a> - Atari Games<br/>Toobin' is an Atari Games video game originally released as an arcade game in 1988 and is based on the recreational sport tubing. In the game, you play as the main characters Bif or Jet, guiding them through many winding rivers on an innertube. Gameplay The player competes in a river race against the computer or another player. The player's score increases by swishing the gates, hitting other characters with cans, collecting hidden letters to spell Toobin', and collecting treasures...<br/><span style="font-weight:bold;">Downloads:</span> 238,182 </td><td class="thumbCell"><img width="80" height="55" src="/serve/arcade_toobin/arcade_toobin.gif"/></td></tr>
<tr class="hitRow"><td class="numberCell"><img src="/images/mediatype_software.gif" alt="[software]"/></td><td class="hitCell"><a class="titleLink" href="/details/arcade_bubbles">Internet Arcade: Bubbles</a> - Williams<br/>Bubbles is an arcade video game developed by Williams Electronics and released in 1982. It is an action game that features two-dimensional (2D) graphics. The player uses a joystick to control a bubble in a kitchen sink. The object is to progress through levels by cleaning the sink while avoiding enemies. Development was handled by John Kotlarik and Python Anghelo. Kotlarik desired to create a non-violent game inspired by Pac-Man...<br/><span style="font-weight:bold;">Downloads:</span> 4,751 </td><td class="thumbCell"><img width="80" height="55" src="/serve/arcade_bubbles/arcade_bubbles.gif"/></td></tr>
<tr class="hitRow"><td class="numberCell"><img src="/images/mediatype_software.gif" alt="[software]"/></td><td class="hitCell"><a class="titleLink" href="/details/arcade_stargate">Internet Arcade: Stargate</a> - Williams / Vid Kidz<br/>Stargate is an arcade game released in 1981 by Williams Electronics. Created by Eugene Jarvis, it is a sequel to the 1980 game Defender, and was the first of only three productions from Vid Kidz, an independent development house formed by Jarvis and Larry DeMar. This video game has no connection to the subsequent Stargate franchise that began 13 years later. Legal issues The game is also known as Defender Stargate and Defender II...<br/><span style="font-weight:bold;">Downloads:</span> 245,593 </td><td class="thumbCell"><img width="80" height="55" src="/serve/arcade_stargate/arcade_stargate.gif"/></td></tr>
<tr class="hitRow"><td class="numberCell"><img src="/images/mediatype_software.gif" alt="[software]"/></td><td class="hitCell"><a class="titleLink" href="/details/arcade_defender">Internet Arcade: Defender</a> - Williams<br/>Defender is an arcade video game developed and released by Williams Electronics in February 1981. A shooting game featuring two-dimensional (2D) graphics, the game is set on a fictional planet where the player must defeat waves of invading aliens while protecting astronauts. Development was led by Eugene Jarvis, a pinball programmer at Williams; Defender was Jarvis' first video game project and drew inspiration from Space Invaders and Asteroids...<br/><span style="font-weight:bold;">Downloads:</span> 348,247 <nobr class="stars"><img src="/images/star.png" alt="2.50 out of 5 stars" title="2.50 out of 5 stars"/><img src="/images/star.png" alt="2.50 out of 5 stars" title="2.50 out of 5 stars"/><img src="/images/half_star.png" alt="2.50 out of 5 stars" title="2.50 out of 5 stars"/></nobr><span style="font-size:8pt;">(5 reviews)</span></td><td class="thumbCell"><img width="80" height="55" src="/serve/arcade_defender/arcade_defender.gif"/></td></tr>
<tr class="hitRow"><td class="numberCell"><img src="/images/mediatype_software.gif" alt="[software]"/></td><td class="hitCell"><a class="titleLink" href="/details/arcade_sinistar">Internet Arcade: Sinistar</a> - Williams<br/>Sinistar is an arcade game released by Williams in 1982. It belongs to a class of video games called twitch games. Sinistar was developed by Sam Dicker, Jack Haeger, Noah Falstein, RJ Mical and Richard Witt. The title is also a pun on the word "sinister." The player pilots a lone spacecraft, and must create "Sinibombs" by shooting at drifting planetoids and catching the crystals that are thereby released...<br/><span style="font-weight:bold;">Downloads:</span> 252,636 </td><td class="thumbCell"><img width="80" height="55" src="/serve/arcade_sinistar/arcade_sinistar.gif"/></td></tr>
<tr class="hitRow"><td class="numberCell"><img src="/images/mediatype_software.gif" alt="[software]"/></td><td class="hitCell"><a class="titleLink" href="/details/arcade_darkwar">Internet Arcade: Dark Warrior</a> - Century Electronics<br/>Defend yourself from horizontally moving aliens who fire on your ship. Defend your fuel tanks from walking machines who fire missiles into the air. Technical: The game has a voice simulation. As it was created in 1981, the quality of the voice is not all that great but for the time it was an inovative attempt to stand out.<br/><span style="font-weight:bold;">Downloads:</span> 145,099 </td><td class="thumbCell"><img width="80" height="55" src="/serve/arcade_darkwar/arcade_darkwar.gif"/></td></tr>
<tr class="hitRow"><td class="numberCell"><img src="/images/mediatype_software.gif" alt="[software]"/></td><td class="hitCell"><a class="titleLink" href="/details/arcade_bosco">Internet Arcade: Bosconian</a> - Namco (Midway license)<br/>Bosconian (ボスコニアン Bosukonian) is a free-roaming multi-directional scrolling shooter arcade game which was developed and released by Namco in Japan in 1981. In North America, it was manufactured and distributed by Midway Games. In contrast to the more linear shooter games from its time period, Bosconian allows the player's ship to freely roam across open space which scrolls in all directions...<br/><span style="font-weight:bold;">Downloads:</span> 363,807 <nobr class="stars"><img src="/images/star.png" alt="4.00 out of 5 stars" title="4.00 out of 5 stars"/><img src="/images/star.png" alt="4.00 out of 5 stars" title="4.00 out of 5 stars"/><img src="/images/star.png" alt="4.00 out of 5 stars" title="4.00 out of 5 stars"/><img src="/images/star.png" alt="4.00 out of 5 stars" title="4.00 out of 5 stars"/></nobr><span style="font-size:8pt;">(1 review)</span></td><td class="thumbCell"><img width="80" height="55" src="/serve/arcade_bosco/arcade_bosco.gif"/></td></tr>
<tr class="hitRow"><td class="numberCell"><img src="/images/mediatype_software.gif" alt="[software]"/></td><td class="hitCell"><a class="titleLink" href="/details/arcade_elim2">Internet Arcade: Eliminator</a> - Gremlin<br/>Eliminator was a multi-directional shooter space combat game, created and released by Sega of Japan in 1981. This space shooter game, which was similar to the monochrome Star Castle, was notable for its color vector graphics, and for allowing cooperative as well as competitive multiplayer gameplay. It is also the only four-player vector game ever made. Players pilot a space ship around the playfield (space) and must destroy alien drones...<br/><span style="font-weight:bold;">Downloads:</span> 142,431 </td><td class="thumbCell"><img width="80" height="55" src="/serve/arcade_elim2/arcade_elim2.gif"/></td></tr>
<tr class="hitRow"><td class="numberCell"><img src="/images/mediatype_software.gif" alt="[software]"/></td><td class="hitCell"><a class="titleLink" href="/details/arcade_sf2">Internet Arcade: Street Fighter 2</a> - Capcom<br/>Street Fighter II: The World Warrior (ストリートファイターⅡ -The World Warrior-) is a competitive fighting game originally released for the arcades in 1991. It is the second entry in the Street Fighter series and the arcade sequel to the original Street Fighter released in 1987. It was Capcom's fourteenth title that ran on the CP System arcade hardware. Street Fighter II improved upon the many concepts introduced in the first game, including the use of command-based special moves and...<br/><span style="font-weight:bold;">Downloads:</span> 264,296 <nobr class="stars"><img src="/images/star.png" alt="5.00 out of 5 stars" title="5.00 out of 5 stars"/><img src="/images/star.png" alt="5.00 out of 5 stars" title="5.00 out of 5 stars"/><img src="/images/star.png" alt="5.00 out of 5 stars" title="5.00 out of 5 stars"/><img src="/images/star.png" alt="5.00 out of 5 stars" title="5.00 out of 5 stars"/><img src="/images/star.png" alt="5.00 out of 5 stars" title="5.00 out of 5 stars"/></nobr><span style="font-size:8pt;">(2 reviews)</span></td><td class="thumbCell"><img width="80" height="55" src="/serve/arcade_sf2/arcade_sf2.gif"/></td></tr>
<tr class="hitRow"><td class="numberCell"><img src="/images/mediatype_software.gif" alt="[software]"/></td><td class="hitCell"><a class="titleLink" href="/details/arcade_tranqgun">Internet Arcade: Tranquilizer Gun</a> - Sega<br/>Tranquilizer Gun is a multi-directional shooter arcade game that was released by Sega (in 1980); it runs on their Vic Dual hardware, and the player must use a four-directional joystick to direct a yellow hunter around a maze with a single button to make him fire shots (from that eponymous "tranquilizer gun") at four different types of wild animals (snakes, elephants, gorillas and lions) to knock them out...<br/><span style="font-weight:bold;">Downloads:</span> 107,523 </td><td class="thumbCell"><img width="80" height="55" src="/serve/arcade_tranqgun/arcade_tranqgun.gif"/></td></tr>
<tr class="hitRow"><td class="numberCell"><img src="/images/mediatype_software.gif" alt="[software]"/></td><td class="hitCell"><a class="titleLink" href="/details/arcade_theend">Internet Arcade: The End</a> - Konami<br/>"What a dramatic name. The End is a combination of Namco's Galaxian with Cinematronics' Rip Off. You control a ship at the bottom of the screen who must fend off a group of alien invaders. In other words, pretty typical... except there are three structures at the bottom of the screen. They aren't qutie shields, but they can be dismantled brick by brick and carried to the top of the screen by the enemies...<br/><span style="font-weight:bold;">Downloads:</span> 106,931 </td><td class="thumbCell"><img width="80" height="55" src="/serve/arcade_theend/arcade_theend.gif"/></td></tr>
<tr class="hitRow"><td class="numberCell"><img src="/images/mediatype_software.gif" alt="[software]"/></td><td class="hitCell"><a class="titleLink" href="/details/arcade_spacetrk">Internet Arcade: Space Trek</a> - Sega<br/><br/><span style="font-weight:bold;">Downloads:</span> 7 </td><td class="thumbCell"><img width="80" height="55" src="/serve/arcade_spacetrk/arcade_spacetrk.gif"/></td></tr>
<tr class="hitRow"><td class="numberCell"><img src="/images/mediatype_software.gif" alt="[software]"/></td><td class="hitCell"><a class="titleLink" href="/details/arcade_spacefb">Internet Arcade: Space Firebird</a> - Nintendo<br/>Space Firebird (スペース ファイアーバード) is a 1980 arcade game developed by Nintendo R&D1. It was published by Nintendo in Japan and in the North America. It was also published by Sega-Gremlin in the US as well. Some sources claim that Ikegami Tsushinki also did design work on Space Firebird. Players guide a ship through deep space, while encountering spherical objects that appears to look like a bunch of comets or shooting stars...<br/><span style="font-weight:bold;">Downloads:</span> 3,396 </td><td class="thumbCell"><img width="80" height="55" src="/serve/arcade_spacefb/arcade_spacefb.gif"/></td></tr>
        </table><!--/#.resultsTable-->
      </td><!--/#.resultsCell-->
    </tr>

    

<tr><td colspan="2" class="pageRow"><a href="/search.php?query=collection%3Ainternetarcade&sort=-publicdate&amp;page=1">First</a> &nbsp;&nbsp;&nbsp;<a href="/search.php?query=collection%3Ainternetarcade&sort=-publicdate&amp;page=16">Prev</a> &nbsp;&nbsp;&nbsp;<a href="/search.php?query=collection%3Ainternetarcade&sort=-publicdate&amp;page=7">7</a> <a href="/search.php?query=collection%3Ainternetarcade&sort=-publicdate&amp;page=8">8</a> <a href="/search.php?query=collection%3Ainternetarcade&sort=-publicdate&amp;page=9">9</a> <a href="/search.php?query=collection%3Ainternetarcade&sort=-publicdate&amp;page=10">10</a> <a href="/search.php?query=collection%3Ainternetarcade&sort=-publicdate&amp;page=11">11</a> <a href="/search.php?query=collection%3Ainternetarcade&sort=-publicdate&amp;page=12">12</a> <a href="/search.php?query=collection%3Ainternetarcade&sort=-publicdate&amp;page=13">13</a> <a href="/search.php?query=collection%3Ainternetarcade&sort=-publicdate&amp;page=14">14</a> <a href="/search.php?query=collection%3Ainternetarcade&sort=-publicdate&amp;page=15">15</a> <a href="/search.php?query=collection%3Ainternetarcade&sort=-publicdate&amp;page=16">16</a> [17] <a href="/search.php?query=collection%3Ainternetarcade&sort=-publicdate&amp;page=18">18</a> <a href="/search.php?query=collection%3Ainternetarcade&sort=-publicdate&amp;page=19">19</a> &nbsp;&nbsp;&nbsp; <a href="/search.php?query=collection%3Ainternetarcade&sort=-publicdate&amp;page=18">Next</a>&nbsp;&nbsp;&nbsp; <a href="/search.php?query=collection%3Ainternetarcade&sort=-publicdate&amp;page=19">Last</a></td></tr>

  </table><!--/#.searchResults-->
</div><!--/#col2-->
<div id="col3b">

    <a style="padding-left:25px;" href="/advancedsearch.php?q=collection%3Ainternetarcade#raw">Advanced&nbsp;search</a>
  
  <table>
    <tr><td class="relatedInfoCell">
<div class="box well well-sm"><h4>Sort results by:</h4><a href="/search.php?query=collection%3Ainternetarcade">Relevance</a><br/><a href="/search.php?query=collection%3Ainternetarcade&amp;sort=-avg_rating%3B-num_reviews">Average rating</a><br/><a href="/search.php?query=collection%3Ainternetarcade&amp;sort=-downloads">Download count</a><br/><a href="/search.php?query=collection%3Ainternetarcade&amp;sort=-date">Date</a><br/>&gt; Date added<br/></div>
<div class="box well well-sm"><h4>Group results by:</h4>&gt; Relevance<br/><a href="/search.php?query=collection%3Ainternetarcade&amp;groupby=mediatype">Mediatype</a><br/><a href="/search.php?query=collection%3Ainternetarcade&amp;groupby=collection">Collection</a><br/></div>
<div class="box well well-sm"><h4>Refine your search:</h4><h5>Collection</h5><a href="/search.php?query=collection%3A%22internetarcade%22%20AND%20%28collection%3Ainternetarcade%29">internetarcade</a><br/><a href="/search.php?query=collection%3A%22stream_only%22%20AND%20%28collection%3Ainternetarcade%29">stream_only</a><br/></br><h5>Creator</h5><a href="/search.php?query=creator%3A%22Atari%22%20AND%20%28collection%3Ainternetarcade%29">Atari</a><br/><a href="/search.php?query=creator%3A%22Yachiyo%20Electronics%2C%20Ltd.%22%20AND%20%28collection%3Ainternetarcade%29">Yachiyo Electronics, Ltd.</a><br/><a href="/search.php?query=creator%3A%22Gremlin%22%20AND%20%28collection%3Ainternetarcade%29">Gremlin</a><br/><a href="/search.php?query=creator%3A%22Atari%20%28Kee%20Games%29%22%20AND%20%28collection%3Ainternetarcade%29">Atari (Kee Games)</a><br/><a href="/search.php?query=creator%3A%22RamTek%22%20AND%20%28collection%3Ainternetarcade%29">RamTek</a><br/></br><h5>File formats</h5><a href="/search.php?sort=-publicdate&amp;page=17&amp;query=%28collection%3Ainternetarcade%29%20AND%20format%3Amp3">MP3 files</a><br/><a href="/search.php?sort=-publicdate&amp;page=17&amp;query=%28collection%3Ainternetarcade%29%20AND%20%28format%3Aflac%20OR%20format%3Ashorten%20OR%20format%3Amp3%20OR%20format%3Aogg%29">Any audio file</a><br/><a href="/search.php?sort=-publicdate&amp;page=17&amp;query=%28collection%3Ainternetarcade%29%20AND%20%28format%3Ampeg%20OR%20format%3Aquicktime%20OR%20format%3Areal%29">Movie files</a><br/><a href="/search.php?sort=-publicdate&amp;page=17&amp;query=%28collection%3Ainternetarcade%29%20AND%20%28format%3Ajpeg%20OR%20format%3Ajpg%20OR%20format%3Agif%20OR%20format%3Apng%29">Images</a><br/><br/></div>
<div class="box well well-sm"><h4>Related collections</h4><a href="/search.php?query=collection%3A%22stream_only%22">stream_only</a><br/><a href="/search.php?query=collection%3A%22internetarcade%22">internetarcade</a><br/></div>
<div class="box well well-sm"><h4>Related creators</h4><a href="/search.php?query=creator%3A%22Atari%22">Atari</a><br/><a href="/search.php?query=creator%3A%22Sega%22">Sega</a><br/><a href="/search.php?query=creator%3A%22Gremlin%22">Gremlin</a><br/><a href="/search.php?query=creator%3A%22Taito%20Corporation%22">Taito Corporation</a><br/><a href="/search.php?query=creator%3A%22Atari%20%28Kee%20Games%29%22">Atari (Kee Games)</a><br/></div>
<div class="box well well-sm"><h4>Related mediatypes</h4><a href="/search.php?query=mediatype%3A%22software%22">software</a><br/></div>
<div class="box well well-sm"><h4>Options</h4><a href="/search.php?set_option=search_no_thumbs&amp;option_value=1">Turn off thumbnails</a><br/><a href="/search.php?set_option=search_show_source&amp;option_value=1">Show 'source' field</a><br/></div>
</td></tr></table></div><!--/#col3b-->
</table>
</div>

</div><!--/.posrel-->
