4208793500 29769 ./ia801402.us.archive.org/1/items/arcade_005/005.zip
4165375007 37047 ./ia801402.us.archive.org/1/items/arcade_markham/markham.zip
4277468627 23351 ./ia801402.us.archive.org/1/items/arcade_qix/qix.zip
2132205358 39895 ./ia801402.us.archive.org/1/items/arcade_spaceod/spaceod.zip
2734760674 305392 ./ia801402.us.archive.org/20/items/arcade_1943/1943.zip
693471168 848905 ./ia801402.us.archive.org/32/items/arcade_altbeast/altbeast.zip
1694068272 1269219 ./ia801402.us.archive.org/32/items/arcade_ordyne/ordyne.zip
3360141072 38129 ./ia801402.us.archive.org/26/items/arcade_arabian/arabian.zip
2227055408 9378 ./ia801402.us.archive.org/9/items/arcade_astrof/astrof.zip
1181454162 81140 ./ia801402.us.archive.org/9/items/arcade_finalizr/finalizr.zip
3689458479 271345 ./ia801402.us.archive.org/9/items/arcade_salamand/salamand.zip
3693890486 11252 ./ia801402.us.archive.org/8/items/arcade_azurian/azurian.zip
2743696611 209285 ./ia801402.us.archive.org/8/items/arcade_bigevglf/bigevglf.zip
3302891965 21202 ./ia801402.us.archive.org/8/items/arcade_naughtyb/naughtyb.zip
2826930340 89366 ./ia801402.us.archive.org/8/items/arcade_sidepckt/sidepckt.zip
3921561335 99727 ./ia801402.us.archive.org/8/items/arcade_victnine/victnine.zip
2046926281 454673 ./ia801402.us.archive.org/23/items/arcade_baddudes/baddudes.zip
3584944373 28344 ./ia801402.us.archive.org/19/items/arcade_bking/bking.zip
1064590806 93944 ./ia801402.us.archive.org/19/items/arcade_legend/legend.zip
2513647662 530560 ./ia801402.us.archive.org/19/items/arcade_vindictr/vindictr.zip
3102936622 282716 ./ia801402.us.archive.org/17/items/arcade_bldwolfj/bldwolfj.zip
533629623 893989 ./ia801402.us.archive.org/17/items/arcade_tdfever2/tdfever2.zip
31767494 23361 ./ia801402.us.archive.org/5/items/arcade_blueprnt/blueprnt.zip
371489986 88562 ./ia801402.us.archive.org/5/items/arcade_compgolfo/compgolfo.zip
1331190571 806437 ./ia801402.us.archive.org/5/items/arcade_pow/pow.zip
1636111885 2254373 ./ia801402.us.archive.org/5/items/arcade_tinklpit/tinklpit.zip
69027058 331133 ./ia801402.us.archive.org/33/items/arcade_cclimbr2/cclimbr2.zip
4234261443 75215 ./ia801402.us.archive.org/33/items/arcade_exedexes/exedexes.zip
3193023665 46285 ./ia801402.us.archive.org/33/items/arcade_tinstar/tinstar.zip
2635927612 120044 ./ia801402.us.archive.org/14/items/arcade_darwin/darwin.zip
2554928372 136283 ./ia801402.us.archive.org/10/items/arcade_dblplay/dblplay.zip
4122661409 20672 ./ia801402.us.archive.org/10/items/arcade_tugboat/tugboat.zip
2332047023 748422 ./ia801402.us.archive.org/15/items/arcade_ddragon2/ddragon2.zip
4073689398 389726 ./ia801402.us.archive.org/15/items/arcade_indytemp/indytemp.zip
891994070 1113354 ./ia801402.us.archive.org/15/items/arcade_mrheli/mrheli.zip
3967754105 51852 ./ia801402.us.archive.org/15/items/arcade_spacecr/spacecr.zip
674336028 19508 ./ia801402.us.archive.org/22/items/arcade_devilfsh/devilfsh.zip
4097430096 41448 ./ia801402.us.archive.org/12/items/arcade_domino/domino.zip
3404732151 62385 ./ia801402.us.archive.org/12/items/arcade_upndown/upndown.zip
2669421399 9545 ./ia801402.us.archive.org/12/items/arcade_videopin/videopin.zip
2454102357 3293 ./ia801402.us.archive.org/35/items/arcade_dominos/dominos.zip
871646622 122584 ./ia801402.us.archive.org/35/items/arcade_nemesis/nemesis.zip
3529970000 11376 ./ia801402.us.archive.org/4/items/arcade_enigma2/enigma2.zip
70495655 23454 ./ia801402.us.archive.org/30/items/arcade_goldbug/goldbug.zip
3791935266 52172 ./ia801402.us.archive.org/30/items/arcade_hangman/hangman.zip
2327469692 25538 ./ia801402.us.archive.org/24/items/arcade_gridlee/gridlee.zip
2007890569 24729 ./ia801402.us.archive.org/24/items/arcade_rockclim/rockclim.zip
470666891 817566 ./ia801402.us.archive.org/29/items/arcade_hypsptsp/hypsptsp.zip
3103542149 17923 ./ia801402.us.archive.org/31/items/arcade_intrepid/intrepid.zip
1013814745 65466 ./ia801402.us.archive.org/28/items/arcade_ldrun2/ldrun2.zip
741734043 2050614 ./ia801402.us.archive.org/11/items/arcade_metlhawk/metlhawk.zip
531853353 17716 ./ia801402.us.archive.org/6/items/arcade_moguchan/moguchan.zip
1690210813 59273 ./ia801402.us.archive.org/27/items/arcade_mrflea/mrflea.zip
844872469 501323 ./ia801402.us.archive.org/34/items/arcade_rabiolep/rabiolep.zip
3912258339 2300790 ./ia801402.us.archive.org/7/items/arcade_reikaids/reikaids.zip
1618589407 14935 ./ia801402.us.archive.org/3/items/arcade_route16/route16.zip
2171183449 198965 ./ia801402.us.archive.org/25/items/arcade_sectionz/sectionz.zip
1670376414 6845 ./ia801402.us.archive.org/2/items/arcade_skyraid/skyraid.zip
2457871531 25555 ./ia801402.us.archive.org/18/items/arcade_spiders/spiders.zip
1684697702 391158 ./ia801402.us.archive.org/18/items/arcade_wb3/wb3.zip
1988822531 387898 ./ia801402.us.archive.org/16/items/arcade_twincobr/twincobr.zip
3112208703 38625 ./ia801402.us.archive.org/21/items/arcade_wilytowr/wilytowr.zip
3798612567 73365 ./ia902300.us.archive.org/26/items/arcade_3stooges/3stooges.zip
1820592994 22667 ./ia902300.us.archive.org/4/items/arcade_bounty/bounty.zip
1994819522 48216 ./ia902300.us.archive.org/9/items/arcade_changela/changela.zip
727739902 104233 ./ia902300.us.archive.org/9/items/arcade_fieldday/fieldday.zip
1716498772 56968 ./ia902300.us.archive.org/9/items/arcade_prosport/prosport.zip
2608916839 95415 ./ia902300.us.archive.org/30/items/arcade_circuscc/circuscc.zip
2693011771 305601 ./ia902300.us.archive.org/34/items/arcade_csprint/csprint.zip
3822864775 16711 ./ia902300.us.archive.org/29/items/arcade_dockman/dockman.zip
2029852401 24500 ./ia902300.us.archive.org/29/items/arcade_galaga/galaga.zip
769674282 21260 ./ia902300.us.archive.org/16/items/arcade_fnkyfish/fnkyfish.zip
3474113171 41700 ./ia902300.us.archive.org/35/items/arcade_grchamp/grchamp.zip
2119673054 43999 ./ia902300.us.archive.org/35/items/arcade_startrek/startrek.zip
995783264 40357 ./ia902300.us.archive.org/8/items/arcade_guzzler/guzzler.zip
502669702 33767 ./ia902300.us.archive.org/8/items/arcade_prosoccr/prosoccr.zip
3239202642 277338 ./ia902300.us.archive.org/8/items/arcade_shackled/shackled.zip
74224656 20975 ./ia902300.us.archive.org/27/items/arcade_hattrick/hattrick.zip
1774932834 16259 ./ia902300.us.archive.org/27/items/arcade_kaos/kaos.zip
3297666890 18348 ./ia902300.us.archive.org/2/items/arcade_pacplus/pacplus.zip
3731485315 31616 ./ia902300.us.archive.org/5/items/arcade_phozon/phozon.zip
451921403 46285 ./ia902300.us.archive.org/25/items/arcade_pinbo/pinbo.zip
1875777605 24362 ./ia902300.us.archive.org/23/items/arcade_radrad/radrad.zip
2370345453 35322 ./ia902300.us.archive.org/23/items/arcade_zaxxon/zaxxon.zip
2498474675 26568 ./ia902300.us.archive.org/24/items/arcade_seicross/seicross.zip
544309152 18868 ./ia902300.us.archive.org/24/items/arcade_suprglob/suprglob.zip
2034433017 35687 ./ia902300.us.archive.org/22/items/arcade_solarfox/solarfox.zip
2738033685 39297 ./ia902300.us.archive.org/7/items/arcade_szaxxon/szaxxon.zip
2932572383 95931 ./ia802300.us.archive.org/30/items/arcade_40love/40love.zip
3513423556 15500 ./ia802300.us.archive.org/30/items/arcade_colony7/colony7.zip
1925571530 38325 ./ia802300.us.archive.org/30/items/arcade_tylz/tylz.zip
1931108695 16261 ./ia802300.us.archive.org/34/items/arcade_8ballact/8ballact.zip
400334363 90426 ./ia802300.us.archive.org/34/items/arcade_bogeyman/bogeyman.zip
4143225342 578285 ./ia802300.us.archive.org/34/items/arcade_truxton/truxton.zip
686821008 12897 ./ia802300.us.archive.org/2/items/arcade_atlantis/atlantis.zip
1888907585 55883 ./ia802300.us.archive.org/2/items/arcade_jackrabt/jackrabt.zip
1205216265 22302 ./ia802300.us.archive.org/23/items/arcade_dkong/dkong.zip
2327489055 42504 ./ia802300.us.archive.org/0/items/arcade_dkong3/dkong3.zip
3490035561 47660 ./ia802300.us.archive.org/0/items/arcade_pandoras/pandoras.zip
3377475995 54750 ./ia802300.us.archive.org/32/items/arcade_drmicro/drmicro.zip
35825947 38160 ./ia802300.us.archive.org/33/items/arcade_elevator/elevator.zip
1823689399 43960 ./ia802300.us.archive.org/10/items/arcade_firebatl/firebatl.zip
4210241875 566433 ./ia802300.us.archive.org/1/items/arcade_genpeitd/genpeitd.zip
3864620331 24812 ./ia802300.us.archive.org/1/items/arcade_snapjack/snapjack.zip
386102879 126430 ./ia802300.us.archive.org/22/items/arcade_hvoltage/hvoltage.zip
3629579970 634384 ./ia802300.us.archive.org/8/items/arcade_imgfight/imgfight.zip
2947095297 59056 ./ia802300.us.archive.org/8/items/arcade_snakjack/snakjack.zip
3456742431 80892 ./ia802300.us.archive.org/8/items/arcade_wmatch/wmatch.zip
2666644181 38811 ./ia802300.us.archive.org/24/items/arcade_lotlot/lotlot.zip
1467389232 313475 ./ia802300.us.archive.org/15/items/arcade_mjleague/mjleague.zip
425991881 29599 ./ia802300.us.archive.org/6/items/arcade_netwars/netwars.zip
1499122235 215168 ./ia802300.us.archive.org/29/items/arcade_ninjakd2/ninjakd2.zip
3137444521 513944 ./ia802300.us.archive.org/29/items/arcade_passshta/passshta.zip
2743036132 25942 ./ia802300.us.archive.org/29/items/arcade_qbert/qbert.zip
1615867181 21761 ./ia802300.us.archive.org/11/items/arcade_piratetr/piratetr.zip
598731844 27147 ./ia802300.us.archive.org/26/items/arcade_polyplay/polyplay.zip
2078846970 58007 ./ia802300.us.archive.org/26/items/arcade_rougien/rougien.zip
1252454782 12835 ./ia802300.us.archive.org/20/items/arcade_redclash/redclash.zip
3804393428 153223 ./ia802300.us.archive.org/20/items/arcade_ssozumo/ssozumo.zip
2828621777 36814 ./ia802300.us.archive.org/4/items/arcade_robotron/robotron.zip
1798024242 8112 ./ia802300.us.archive.org/4/items/arcade_targ/targ.zip
3230402775 15625 ./ia802300.us.archive.org/14/items/arcade_scramble/scramble.zip
1646748988 59601 ./ia802300.us.archive.org/5/items/arcade_senjyo/senjyo.zip
1940839282 44513 ./ia802300.us.archive.org/25/items/arcade_sfx/sfx.zip
1192905559 57020 ./ia802300.us.archive.org/12/items/arcade_sgladiat/sgladiat.zip
443294577 31463 ./ia802300.us.archive.org/31/items/arcade_wiping/wiping.zip
928132942 103754 ./ia902306.us.archive.org/34/items/arcade_4dwarrio/4dwarrio.zip
1134268120 282843 ./ia902306.us.archive.org/34/items/arcade_battlera/battlera.zip
1788256238 40577 ./ia902306.us.archive.org/21/items/arcade_bking2/bking2.zip
3517442396 43127 ./ia902306.us.archive.org/21/items/arcade_gyruss/gyruss.zip
3281440386 19096 ./ia902306.us.archive.org/21/items/arcade_runaway/runaway.zip
3463266102 25210 ./ia902306.us.archive.org/16/items/arcade_bnj/bnj.zip
1571349463 35597 ./ia902306.us.archive.org/8/items/arcade_docastle/docastle.zip
3670771727 37532 ./ia902306.us.archive.org/8/items/arcade_mimonkey/mimonkey.zip
544856390 46497 ./ia902306.us.archive.org/13/items/arcade_fightrol/fightrol.zip
2536550444 20765 ./ia902306.us.archive.org/13/items/arcade_pepper2/pepper2.zip
2187408534 27913 ./ia902306.us.archive.org/6/items/arcade_grobda/grobda.zip
1597812741 24516 ./ia902306.us.archive.org/6/items/arcade_skybump/skybump.zip
3594064021 25780 ./ia902306.us.archive.org/29/items/arcade_hoccer/hoccer.zip
1686830667 154370 ./ia902306.us.archive.org/29/items/arcade_tagteam/tagteam.zip
1245810179 27853 ./ia902306.us.archive.org/35/items/arcade_hopmappy/hopmappy.zip
3719142283 2288485 ./ia902306.us.archive.org/17/items/arcade_hotchase/hotchase.zip
330761622 563846 ./ia902306.us.archive.org/17/items/arcade_roadblst/roadblst.zip
1584866069 22454 ./ia902306.us.archive.org/15/items/arcade_huncholy/huncholy.zip
2467394442 20946 ./ia902306.us.archive.org/15/items/arcade_igmo/igmo.zip
2125937930 36235 ./ia902306.us.archive.org/22/items/arcade_kick/kick.zip
285411276 228593 ./ia902306.us.archive.org/26/items/arcade_kikikai/kikikai.zip
2071838405 231054 ./ia902306.us.archive.org/24/items/arcade_lomakai/lomakai.zip
2837247758 30841 ./ia902306.us.archive.org/18/items/arcade_mazerbla/mazerbla.zip
1105314129 20681 ./ia902306.us.archive.org/0/items/arcade_mmonkey/mmonkey.zip
745468786 55822 ./ia902306.us.archive.org/0/items/arcade_portrait/portrait.zip
651699568 18541 ./ia902306.us.archive.org/20/items/arcade_mrkougar/mrkougar.zip
3383616340 29095 ./ia902306.us.archive.org/2/items/arcade_pengo/pengo.zip
2653229903 22483 ./ia902306.us.archive.org/2/items/arcade_skylancr/skylancr.zip
3276914136 16423 ./ia902306.us.archive.org/31/items/arcade_pickin/pickin.zip
3249032412 15880 ./ia902306.us.archive.org/31/items/arcade_satansat/satansat.zip
1729508049 23749 ./ia902306.us.archive.org/7/items/arcade_skyarmy/skyarmy.zip
3787004351 30970 ./ia902306.us.archive.org/28/items/arcade_spaceskr/spaceskr.zip
413939606 62425 ./ia902306.us.archive.org/4/items/arcade_sxevious/sxevious.zip
408993805 36860 ./ia902306.us.archive.org/9/items/arcade_vsgongf/vsgongf.zip
3028216072 70281 ./ia902306.us.archive.org/14/items/arcade_vulgus/vulgus.zip
2198103610 59664 ./ia902306.us.archive.org/23/items/arcade_yiear/yiear.zip
4095156174 27639 ./ia902306.us.archive.org/5/items/arcade_zzyzzyxx/zzyzzyxx.zip
2485407507 640813 ./ia802308.us.archive.org/33/items/arcade_720/720.zip
4032023559 72788 ./ia802308.us.archive.org/22/items/arcade_cerberus/cerberus.zip
2079014257 369284 ./ia802308.us.archive.org/17/items/arcade_extrmatn/extrmatn.zip
3865537573 272501 ./ia802308.us.archive.org/21/items/arcade_exzisus/exzisus.zip
2074215584 1115399 ./ia802308.us.archive.org/3/items/arcade_finallap/finallap.zip
608984119 1608233 ./ia802308.us.archive.org/4/items/arcade_ghouls/ghouls.zip
1325205355 79003 ./ia802308.us.archive.org/12/items/arcade_hal21/hal21.zip
3524116274 107771 ./ia802308.us.archive.org/27/items/arcade_tehkanwc/tehkanwc.zip
3706722296 28960 ./ia802308.us.archive.org/19/items/arcade_toggle/toggle.zip
57374906 71963 ./ia802308.us.archive.org/26/items/arcade_tsamurai/tsamurai.zip
345176465 28648 ./ia802308.us.archive.org/26/items/arcade_venture/venture.zip
3720633095 800531 ./ia802308.us.archive.org/13/items/arcade_tshingen/tshingen.zip
2148186621 1142778 ./ia802308.us.archive.org/6/items/arcade_wecleman/wecleman.zip
3496044975 758474 ./ia801404.us.archive.org/4/items/arcade_88games/88games.zip
4157504505 289079 ./ia801404.us.archive.org/4/items/arcade_turtship/turtship.zip
3736518439 165315 ./ia801404.us.archive.org/10/items/arcade_arknoid2/arknoid2.zip
236201916 1162163 ./ia801404.us.archive.org/7/items/arcade_assault/assault.zip
3229122894 132835 ./ia801404.us.archive.org/21/items/arcade_brkthru/brkthru.zip
3999899890 222401 ./ia801404.us.archive.org/24/items/arcade_butasan/butasan.zip
3788582806 1325979 ./ia801404.us.archive.org/14/items/arcade_chqflag/chqflag.zip
3446455336 59389 ./ia801404.us.archive.org/14/items/arcade_pbillrd/pbillrd.zip
3280137869 45649 ./ia801404.us.archive.org/15/items/arcade_countrun/countrun.zip
2643294394 368501 ./ia801404.us.archive.org/26/items/arcade_defense/defense.zip
1102135169 399766 ./ia801404.us.archive.org/23/items/arcade_drtoppel/drtoppel.zip
1564081962 386392 ./ia801404.us.archive.org/23/items/arcade_rtype/rtype.zip
3870009316 532460 ./ia801404.us.archive.org/27/items/arcade_kurikint/kurikint.zip
2452795723 1168063 ./ia801404.us.archive.org/20/items/arcade_recordbr/recordbr.zip
8670320 366622 ./ia801404.us.archive.org/28/items/arcade_sdi/sdi.zip
4263816737 289529 ./ia801404.us.archive.org/18/items/arcade_stadhero/stadhero.zip
4092796093 73893 ./ia801404.us.archive.org/18/items/arcade_stompin/stompin.zip
2151364032 911725 ./ia801404.us.archive.org/22/items/arcade_timesold/timesold.zip
82705292 2477358 ./ia801404.us.archive.org/22/items/arcade_twineagl/twineagl.zip
806566034 444238 ./ia801404.us.archive.org/2/items/arcade_vigilant/vigilant.zip
4032221159 352834 ./ia801404.us.archive.org/2/items/arcade_wndrmomo/wndrmomo.zip
1702626036 90372 ./ia801404.us.archive.org/11/items/arcade_wboy/wboy.zip
854368261 392223 ./ia801404.us.archive.org/13/items/arcade_xenophob/xenophob.zip
2584151726 19524 ./ia802302.us.archive.org/5/items/arcade_8ball/8ball.zip
3452810040 6848 ./ia802302.us.archive.org/5/items/arcade_superbug/superbug.zip
2672079543 25943 ./ia802302.us.archive.org/27/items/arcade_beezer/beezer.zip
3710826741 8724 ./ia802302.us.archive.org/27/items/arcade_centiped/centiped.zip
1578593106 64822 ./ia802302.us.archive.org/27/items/arcade_trackfld/trackfld.zip
1275133642 338722 ./ia802302.us.archive.org/25/items/arcade_blktiger/blktiger.zip
3684428845 21980 ./ia802302.us.archive.org/12/items/arcade_cavenger/cavenger.zip
3466189557 12050 ./ia802302.us.archive.org/12/items/arcade_heiankyo/heiankyo.zip
2666968618 6580 ./ia802302.us.archive.org/15/items/arcade_dodgem/dodgem.zip
1773606498 8337 ./ia802302.us.archive.org/15/items/arcade_tankbatt/tankbatt.zip
506914487 20168 ./ia802302.us.archive.org/19/items/arcade_funkybee/funkybee.zip
1779636155 13990 ./ia802302.us.archive.org/26/items/arcade_jungler/jungler.zip
1047581609 16711 ./ia802302.us.archive.org/8/items/arcade_mooncrst/mooncrst.zip
2523798936 33276 ./ia802302.us.archive.org/10/items/arcade_mtrap/mtrap.zip
3178865517 35413 ./ia802302.us.archive.org/16/items/arcade_olibochu/olibochu.zip
2298273433 34710 ./ia802302.us.archive.org/14/items/arcade_pooyan/pooyan.zip
1244157619 20136 ./ia802302.us.archive.org/9/items/arcade_popflame/popflame.zip
866907419 6369 ./ia802302.us.archive.org/9/items/arcade_ultratnk/ultratnk.zip
259626521 44412 ./ia802302.us.archive.org/11/items/arcade_pturn/pturn.zip
3019411316 22551 ./ia802302.us.archive.org/11/items/arcade_scregg/scregg.zip
1825507027 13410 ./ia802302.us.archive.org/11/items/arcade_supertnk/supertnk.zip
547620758 6283 ./ia802302.us.archive.org/33/items/arcade_safarir/safarir.zip
3355634516 7441 ./ia802302.us.archive.org/33/items/arcade_sprint4/sprint4.zip
1156071987 10478 ./ia802302.us.archive.org/4/items/arcade_tunhunt/tunhunt.zip
779781754 1547888 ./ia902307.us.archive.org/29/items/arcade_aburner2/aburner2.zip
727991480 36061 ./ia902307.us.archive.org/29/items/arcade_dynamski/dynamski.zip
3186031266 297157 ./ia902307.us.archive.org/29/items/arcade_kyros/kyros.zip
4029069032 194039 ./ia902307.us.archive.org/29/items/arcade_zwackery/zwackery.zip
334473014 468902 ./ia902307.us.archive.org/31/items/arcade_bermudat/bermudat.zip
4065899644 101418 ./ia902307.us.archive.org/31/items/arcade_hyprolym/hyprolym.zip
3539571653 49919 ./ia902307.us.archive.org/31/items/arcade_stinger/stinger.zip
4093480385 21496 ./ia902307.us.archive.org/22/items/arcade_chboxing/chboxing.zip
3923622637 283893 ./ia902307.us.archive.org/19/items/arcade_chelnov/chelnov.zip
266120529 81115 ./ia902307.us.archive.org/19/items/arcade_mrgoemon/mrgoemon.zip
3618441221 22630 ./ia902307.us.archive.org/6/items/arcade_cloud9/cloud9.zip
1926321492 769533 ./ia902307.us.archive.org/30/items/arcade_deadang/deadang.zip
48249648 89505 ./ia902307.us.archive.org/21/items/arcade_dogfgt/dogfgt.zip
874062340 42690 ./ia902307.us.archive.org/21/items/arcade_josvolly/josvolly.zip
4292735133 30061 ./ia902307.us.archive.org/34/items/arcade_elecyoyo/elecyoyo.zip
3110462963 105790 ./ia902307.us.archive.org/3/items/arcade_equites/equites.zip
4133584145 37161 ./ia902307.us.archive.org/3/items/arcade_joust/joust.zip
2641164854 32913 ./ia902307.us.archive.org/28/items/arcade_espial/espial.zip
56910630 31361 ./ia902307.us.archive.org/28/items/arcade_stocker/stocker.zip
3843753266 56786 ./ia902307.us.archive.org/16/items/arcade_gaplus/gaplus.zip
808806002 251452 ./ia902307.us.archive.org/8/items/arcade_gauntlet/gauntlet.zip
1067855991 26106 ./ia902307.us.archive.org/8/items/arcade_hopprobo/hopprobo.zip
1726130597 30487 ./ia902307.us.archive.org/8/items/arcade_wwestern/wwestern.zip
2589255973 22987 ./ia902307.us.archive.org/20/items/arcade_hunchbak/hunchbak.zip
1565961204 41651 ./ia902307.us.archive.org/20/items/arcade_pignewt/pignewt.zip
1026915864 110292 ./ia902307.us.archive.org/0/items/arcade_kchamp/kchamp.zip
3066011709 51649 ./ia902307.us.archive.org/7/items/arcade_krull/krull.zip
1050424958 338715 ./ia902307.us.archive.org/2/items/arcade_legiono/legiono.zip
193834177 82204 ./ia902307.us.archive.org/17/items/arcade_m660/m660.zip
771622907 30564 ./ia902307.us.archive.org/10/items/arcade_nova2001/nova2001.zip
1052681380 101750 ./ia902307.us.archive.org/10/items/arcade_sprcros2/sprcros2.zip
1594621791 142283 ./ia902307.us.archive.org/18/items/arcade_psychic5/psychic5.zip
2800307387 48110 ./ia902307.us.archive.org/15/items/arcade_retofinv/retofinv.zip
4080251585 64728 ./ia902307.us.archive.org/12/items/arcade_sonson/sonson.zip
3414805749 1230877 ./ia902307.us.archive.org/14/items/arcade_superman/superman.zip
1638063637 515241 ./ia902307.us.archive.org/25/items/arcade_teamqb/teamqb.zip
1114788646 54934 ./ia902307.us.archive.org/23/items/arcade_toypop/toypop.zip
2044739396 81889 ./ia801405.us.archive.org/29/items/arcade_airwolf/airwolf.zip
3357960880 272129 ./ia801405.us.archive.org/13/items/arcade_blkpnthr/blkpnthr.zip
1611929921 351658 ./ia801405.us.archive.org/35/items/arcade_bodyslam/bodyslam.zip
724126381 534472 ./ia801405.us.archive.org/35/items/arcade_ddragon/ddragon.zip
2176909535 19629 ./ia801405.us.archive.org/35/items/arcade_psurge/psurge.zip
1024987496 1506756 ./ia801405.us.archive.org/17/items/arcade_finalb/finalb.zip
1242592458 168615 ./ia801405.us.archive.org/17/items/arcade_valtric/valtric.zip
1221029587 1936299 ./ia801405.us.archive.org/21/items/arcade_forgottn/forgottn.zip
3785673355 266696 ./ia801405.us.archive.org/7/items/arcade_gladiatr/gladiatr.zip
1718154040 755327 ./ia801405.us.archive.org/23/items/arcade_goldmedl/goldmedl.zip
1951502389 135257 ./ia801405.us.archive.org/18/items/arcade_hardhead/hardhead.zip
690422850 217935 ./ia801405.us.archive.org/18/items/arcade_kidniki/kidniki.zip
1337119594 85203 ./ia801405.us.archive.org/20/items/arcade_ldrun4/ldrun4.zip
4184451681 119652 ./ia801405.us.archive.org/24/items/arcade_mightguy/mightguy.zip
794320981 1335737 ./ia801405.us.archive.org/25/items/arcade_nastar/nastar.zip
719283207 318414 ./ia801405.us.archive.org/4/items/arcade_sidearms/sidearms.zip
2952583425 276656 ./ia801405.us.archive.org/19/items/arcade_thedeep/thedeep.zip
526781029 185828 ./ia801405.us.archive.org/16/items/arcade_tricktrp/tricktrp.zip
4187993464 328578 ./ia801405.us.archive.org/34/items/arcade_trojan/trojan.zip
4127678411 304621 ./ia601402.us.archive.org/18/items/arcade_alexkidd/alexkidd.zip
3624967911 25404 ./ia601402.us.archive.org/18/items/arcade_tactcian/tactcian.zip
3022652785 165468 ./ia601402.us.archive.org/28/items/arcade_alphamis/alphamis.zip
2322350091 391750 ./ia601402.us.archive.org/28/items/arcade_armedf/armedf.zip
24311636 2907 ./ia601402.us.archive.org/28/items/arcade_hustle/hustle.zip
817655355 28263 ./ia601402.us.archive.org/31/items/arcade_alpine/alpine.zip
1860797763 6661 ./ia601402.us.archive.org/7/items/arcade_astinvad/astinvad.zip
2501851116 40761 ./ia601402.us.archive.org/7/items/arcade_splat/splat.zip
1103762486 62268 ./ia601402.us.archive.org/7/items/arcade_vidvince/vidvince.zip
3486708232 63262 ./ia601402.us.archive.org/6/items/arcade_blockgal/blockgal.zip
249989275 16670 ./ia601402.us.archive.org/6/items/arcade_qwak/qwak.zip
2968653466 567671 ./ia601402.us.archive.org/25/items/arcade_breywood/breywood.zip
689198812 82850 ./ia601402.us.archive.org/25/items/arcade_chinhero/chinhero.zip
1642367019 23006 ./ia601402.us.archive.org/25/items/arcade_dazzler/dazzler.zip
1811556346 23132 ./ia601402.us.archive.org/30/items/arcade_brubber/brubber.zip
2652538197 128627 ./ia601402.us.archive.org/30/items/arcade_ssanchan/ssanchan.zip
3422812255 112451 ./ia601402.us.archive.org/20/items/arcade_citycon/citycon.zip
931774245 35952 ./ia601402.us.archive.org/20/items/arcade_digdug2/digdug2.zip
1493037480 30658 ./ia601402.us.archive.org/3/items/arcade_ckong/ckong.zip
2910934582 12104 ./ia601402.us.archive.org/3/items/arcade_magspot/magspot.zip
1524893764 19296 ./ia601402.us.archive.org/1/items/arcade_commsega/commsega.zip
553341492 68856 ./ia601402.us.archive.org/1/items/arcade_gsword/gsword.zip
2343464247 105654 ./ia601402.us.archive.org/1/items/arcade_homerun/homerun.zip
2299412277 624950 ./ia601402.us.archive.org/1/items/arcade_kageki/kageki.zip
3414510789 343947 ./ia601402.us.archive.org/1/items/arcade_tokio/tokio.zip
2162459485 19148 ./ia601402.us.archive.org/14/items/arcade_demoneye/demoneye.zip
2016873192 411674 ./ia601402.us.archive.org/14/items/arcade_mx5000/mx5000.zip
3029799889 80542 ./ia601402.us.archive.org/14/items/arcade_raflesia/raflesia.zip
556752713 17915 ./ia601402.us.archive.org/10/items/arcade_disco/disco.zip
1506978164 9727 ./ia601402.us.archive.org/26/items/arcade_firetrk/firetrk.zip
2657023305 46913 ./ia601402.us.archive.org/26/items/arcade_madcrash/madcrash.zip
1019249796 28082 ./ia601402.us.archive.org/21/items/arcade_freeze/freeze.zip
250589309 9633 ./ia601402.us.archive.org/21/items/arcade_warofbug/warofbug.zip
1472922394 94731 ./ia601402.us.archive.org/0/items/arcade_hyperspt/hyperspt.zip
4140023063 1101580 ./ia601402.us.archive.org/0/items/arcade_topland/topland.zip
2864770703 97875 ./ia601402.us.archive.org/34/items/arcade_ironhors/ironhors.zip
1738716661 445996 ./ia601402.us.archive.org/34/items/arcade_tnzs/tnzs.zip
326615455 137157 ./ia601402.us.archive.org/2/items/arcade_jedi/jedi.zip
3405118519 12907 ./ia601402.us.archive.org/2/items/arcade_ltcasino/ltcasino.zip
1393746804 36590 ./ia601402.us.archive.org/2/items/arcade_mario/mario.zip
2212664259 937849 ./ia601402.us.archive.org/2/items/arcade_toobin/toobin.zip
2307064730 1195427 ./ia601402.us.archive.org/2/items/arcade_topspeed/topspeed.zip
789934361 79322 ./ia601402.us.archive.org/13/items/arcade_jungleh/jungleh.zip
2918887992 34179 ./ia601402.us.archive.org/13/items/arcade_kngtmare/kngtmare.zip
2017537837 50641 ./ia601402.us.archive.org/33/items/arcade_kicker/kicker.zip
3040688466 45087 ./ia601402.us.archive.org/33/items/arcade_victory/victory.zip
3713182210 18677 ./ia601402.us.archive.org/23/items/arcade_lnc/lnc.zip
1001682346 467504 ./ia601402.us.archive.org/23/items/arcade_viper/viper.zip
1049101227 121845 ./ia601402.us.archive.org/32/items/arcade_momoko/momoko.zip
2084170810 77496 ./ia601402.us.archive.org/32/items/arcade_myhero/myhero.zip
3648733206 87914 ./ia601402.us.archive.org/32/items/arcade_tokisens/tokisens.zip
2462138546 26342 ./ia601402.us.archive.org/16/items/arcade_mshuttle/mshuttle.zip
247765208 352490 ./ia601402.us.archive.org/16/items/arcade_srumbler/srumbler.zip
2175763884 13890 ./ia601402.us.archive.org/17/items/arcade_rallyx/rallyx.zip
1756414683 29009 ./ia601402.us.archive.org/17/items/arcade_waterski/waterski.zip
235513082 38180 ./ia601402.us.archive.org/35/items/arcade_redalert/redalert.zip
2423161618 14504 ./ia601402.us.archive.org/5/items/arcade_spacefb/spacefb.zip
3381219781 30735 ./ia601402.us.archive.org/9/items/arcade_timelimt/timelimt.zip
2457965061 20166 ./ia902302.us.archive.org/31/items/arcade_alibaba/alibaba.zip
3441057574 183385 ./ia902302.us.archive.org/31/items/arcade_phrcraze/phrcraze.zip
3008890715 7630 ./ia902302.us.archive.org/31/items/arcade_sspaceat/sspaceat.zip
827639612 23250 ./ia902302.us.archive.org/24/items/arcade_bagman/bagman.zip
2572177420 68081 ./ia902302.us.archive.org/29/items/arcade_bankp/bankp.zip
3689915755 62047 ./ia902302.us.archive.org/29/items/arcade_boomrang/boomrang.zip
3681850336 70832 ./ia902302.us.archive.org/9/items/arcade_battroad/battroad.zip
1742769308 35771 ./ia902302.us.archive.org/9/items/arcade_pitnrun/pitnrun.zip
3774717410 22772 ./ia902302.us.archive.org/2/items/arcade_diggerc/diggerc.zip
1137286326 7039 ./ia902302.us.archive.org/2/items/arcade_frogs/frogs.zip
1558997795 1162622 ./ia902302.us.archive.org/1/items/arcade_goldnaxe/goldnaxe.zip
1772678522 46448 ./ia902302.us.archive.org/12/items/arcade_kroozr/kroozr.zip
200385427 523814 ./ia902302.us.archive.org/12/items/arcade_rastan/rastan.zip
1765848985 17116 ./ia902302.us.archive.org/16/items/arcade_mariner/mariner.zip
1843015518 15625 ./ia902302.us.archive.org/11/items/arcade_milliped/milliped.zip
577656497 8246 ./ia902302.us.archive.org/11/items/arcade_skychut/skychut.zip
2706487882 47012 ./ia902302.us.archive.org/19/items/arcade_quantum/quantum.zip
2214941420 48552 ./ia902302.us.archive.org/19/items/arcade_wizwarz/wizwarz.zip
1550842491 18499 ./ia902302.us.archive.org/35/items/arcade_quasar/quasar.zip
4074587333 18655 ./ia902302.us.archive.org/6/items/arcade_sbdk/sbdk.zip
2775293033 17698 ./ia902302.us.archive.org/17/items/arcade_sharkatt/sharkatt.zip
130962634 25978 ./ia902302.us.archive.org/0/items/arcade_tutankhm/tutankhm.zip
3720890413 471744 ./ia802305.us.archive.org/17/items/arcade_aliensyn/aliensyn.zip
2345637584 50109 ./ia802305.us.archive.org/17/items/arcade_rocnrope/rocnrope.zip
2483865246 766857 ./ia802305.us.archive.org/35/items/arcade_apb/apb.zip
1400875481 83560 ./ia802305.us.archive.org/10/items/arcade_atomboy/atomboy.zip
682555258 229889 ./ia802305.us.archive.org/13/items/arcade_battlnts/battlnts.zip
1960615487 838129 ./ia802305.us.archive.org/13/items/arcade_vballb/vballb.zip
4010138938 485570 ./ia802305.us.archive.org/2/items/arcade_blasted/blasted.zip
2398217493 863706 ./ia802305.us.archive.org/28/items/arcade_bonzeadv/bonzeadv.zip
1471035146 941584 ./ia802305.us.archive.org/7/items/arcade_cabalus/cabalus.zip
2371734649 315138 ./ia802305.us.archive.org/7/items/arcade_gaunt2/gaunt2.zip
2435928869 56062 ./ia802305.us.archive.org/31/items/arcade_congo/congo.zip
3874922447 43838 ./ia802305.us.archive.org/15/items/arcade_dmndrby/dmndrby.zip
1476113405 265549 ./ia802305.us.archive.org/3/items/arcade_fantzone/fantzone.zip
3294161083 67479 ./ia802305.us.archive.org/18/items/arcade_freekick/freekick.zip
386745449 16726 ./ia802305.us.archive.org/12/items/arcade_frenzy/frenzy.zip
3727340287 945000 ./ia802305.us.archive.org/30/items/arcade_hcastle/hcastle.zip
862488667 985773 ./ia802305.us.archive.org/34/items/arcade_hwchamp/hwchamp.zip
859750472 386943 ./ia802305.us.archive.org/32/items/arcade_kikcubic/kikcubic.zip
683444000 25309 ./ia802305.us.archive.org/6/items/arcade_ladybug/ladybug.zip
782252439 34704 ./ia802305.us.archive.org/19/items/arcade_redrobin/redrobin.zip
3507734738 551659 ./ia802305.us.archive.org/4/items/arcade_rockragea/rockragea.zip
1889961043 96553 ./ia802305.us.archive.org/29/items/arcade_shootout/shootout.zip
2231846131 966546 ./ia802305.us.archive.org/26/items/arcade_skysoldr/skysoldr.zip
2646118673 145130 ./ia802305.us.archive.org/25/items/arcade_tetris/tetris.zip
491980833 26924 ./ia802305.us.archive.org/21/items/arcade_vanguard/vanguard.zip
2543540376 101524 ./ia902304.us.archive.org/7/items/arcade_alleymas/alleymas.zip
1418913471 48749 ./ia902304.us.archive.org/7/items/arcade_pkunwar/pkunwar.zip
1315505978 30303 ./ia902304.us.archive.org/20/items/arcade_ambush/ambush.zip
969637027 323991 ./ia902304.us.archive.org/20/items/arcade_spdodgeb/spdodgeb.zip
339291506 18338 ./ia902304.us.archive.org/22/items/arcade_bongo/bongo.zip
2113050197 58725 ./ia902304.us.archive.org/22/items/arcade_megazone/megazone.zip
1135791130 472613 ./ia902304.us.archive.org/22/items/arcade_shinobi/shinobi.zip
4218918621 27192 ./ia902304.us.archive.org/15/items/arcade_chameleo/chameleo.zip
2114352898 28372 ./ia902304.us.archive.org/15/items/arcade_speedatk/speedatk.zip
585625943 35843 ./ia902304.us.archive.org/26/items/arcade_chwrestl/chwrestl.zip
3597807868 607022 ./ia902304.us.archive.org/27/items/arcade_citybomb/citybomb.zip
238398931 35501 ./ia902304.us.archive.org/27/items/arcade_jumpcoast/jumpcoast.zip
1189672732 69797 ./ia902304.us.archive.org/11/items/arcade_cop01/cop01.zip
3112174700 34472 ./ia902304.us.archive.org/11/items/arcade_progress/progress.zip
3093048872 78511 ./ia902304.us.archive.org/5/items/arcade_esb/esb.zip
3764742642 77134 ./ia902304.us.archive.org/18/items/arcade_flower/flower.zip
1990597332 143345 ./ia902304.us.archive.org/18/items/arcade_teedoff/teedoff.zip
634308272 33212 ./ia902304.us.archive.org/21/items/arcade_gghost/gghost.zip
4092380910 31526 ./ia902304.us.archive.org/21/items/arcade_insector/insector.zip
4068907257 69169 ./ia902304.us.archive.org/30/items/arcade_jailbrek/jailbrek.zip
1886451623 96044 ./ia902304.us.archive.org/30/items/arcade_magmax/magmax.zip
590263348 684508 ./ia902304.us.archive.org/34/items/arcade_lastduel/lastduel.zip
3501930686 14291 ./ia902304.us.archive.org/14/items/arcade_levers/levers.zip
2908638917 41693 ./ia902304.us.archive.org/4/items/arcade_liblrabl/liblrabl.zip
1565653096 16881 ./ia902304.us.archive.org/9/items/arcade_minefld/minefld.zip
998075972 87266 ./ia902304.us.archive.org/32/items/arcade_mrviking/mrviking.zip
170117743 17214 ./ia902304.us.archive.org/32/items/arcade_tazmania/tazmania.zip
961527981 10744 ./ia902304.us.archive.org/8/items/arcade_orbitron/orbitron.zip
3175384489 388753 ./ia902304.us.archive.org/24/items/arcade_quarteta/quarteta.zip
2888828643 92062 ./ia902304.us.archive.org/17/items/arcade_rbtapper/rbtapper.zip
2315191553 132675 ./ia902304.us.archive.org/31/items/arcade_robowres/robowres.zip
672936154 292808 ./ia902304.us.archive.org/3/items/arcade_rockrage/rockrage.zip
621334658 80855 ./ia902304.us.archive.org/29/items/arcade_skykidd/skykidd.zip
1213725573 203033 ./ia902304.us.archive.org/29/items/arcade_undoukai/undoukai.zip
2407204780 49426 ./ia902304.us.archive.org/0/items/arcade_suprloco/suprloco.zip
258740807 839895 ./ia902304.us.archive.org/28/items/arcade_tndrcade/tndrcade.zip
3724908379 43375 ./ia902304.us.archive.org/33/items/arcade_twotiger/twotiger.zip
2059811042 174485 ./ia802307.us.archive.org/29/items/arcade_amazon/amazon.zip
4011301853 405472 ./ia802307.us.archive.org/16/items/arcade_birdtry/birdtry.zip
1170950941 889791 ./ia802307.us.archive.org/2/items/arcade_bladestl/bladestl.zip
2241620451 231574 ./ia802307.us.archive.org/2/items/arcade_rygar/rygar.zip
429524865 1222775 ./ia802307.us.archive.org/2/items/arcade_scontra/scontra.zip
3346471553 612908 ./ia802307.us.archive.org/6/items/arcade_blstroid/blstroid.zip
393625972 59055 ./ia802307.us.archive.org/6/items/arcade_shaolins/shaolins.zip
3773556155 36149 ./ia802307.us.archive.org/6/items/arcade_spdball/spdball.zip
4208486847 20757 ./ia802307.us.archive.org/7/items/arcade_btime/btime.zip
2373428814 18099 ./ia802307.us.archive.org/10/items/arcade_bullsdrt/bullsdrt.zip
1205178697 14292 ./ia802307.us.archive.org/11/items/arcade_bwcasino/bwcasino.zip
3928115545 96130 ./ia802307.us.archive.org/22/items/arcade_capbowl/capbowl.zip
1201485003 884885 ./ia802307.us.archive.org/22/items/arcade_opwolf/opwolf.zip
4276807219 55789 ./ia802307.us.archive.org/33/items/arcade_clshroad/clshroad.zip
3499877361 403065 ./ia802307.us.archive.org/33/items/arcade_csilver/csilver.zip
2529267365 23871 ./ia802307.us.archive.org/33/items/arcade_sdtennis/sdtennis.zip
2051332903 17672 ./ia802307.us.archive.org/13/items/arcade_crush/crush.zip
1552228219 90423 ./ia802307.us.archive.org/24/items/arcade_dangerz/dangerz.zip
1419355708 43654 ./ia802307.us.archive.org/24/items/arcade_dowild/dowild.zip
700297546 92834 ./ia802307.us.archive.org/24/items/arcade_rjammer/rjammer.zip
2706944974 67580 ./ia802307.us.archive.org/4/items/arcade_dotron/dotron.zip
3822221347 248596 ./ia802307.us.archive.org/4/items/arcade_storming/storming.zip
878337277 1809212 ./ia802307.us.archive.org/4/items/arcade_syvalion/syvalion.zip
2289636525 12984 ./ia802307.us.archive.org/4/items/arcade_triplep/triplep.zip
2981516672 45787 ./ia802307.us.archive.org/26/items/arcade_eggs/eggs.zip
3803945106 90627 ./ia802307.us.archive.org/26/items/arcade_flashgal/flashgal.zip
2271447285 93599 ./ia802307.us.archive.org/26/items/arcade_seganinj/seganinj.zip
2588129265 33640 ./ia802307.us.archive.org/26/items/arcade_sqbert/sqbert.zip
128585643 897501 ./ia802307.us.archive.org/35/items/arcade_fround/fround.zip
1991357165 38638 ./ia802307.us.archive.org/35/items/arcade_suprridr/suprridr.zip
1389505201 44725 ./ia802307.us.archive.org/35/items/arcade_zektor/zektor.zip
4179167885 380991 ./ia802307.us.archive.org/1/items/arcade_ginganin/ginganin.zip
2124885553 129241 ./ia802307.us.archive.org/1/items/arcade_kncljoe/kncljoe.zip
2380213908 242887 ./ia802307.us.archive.org/1/items/arcade_marble/marble.zip
1068726873 233428 ./ia802307.us.archive.org/21/items/arcade_jackal/jackal.zip
2456747265 88535 ./ia802307.us.archive.org/21/items/arcade_mayhem/mayhem.zip
3674730095 32526 ./ia802307.us.archive.org/32/items/arcade_mrdo/mrdo.zip
3619279045 287258 ./ia802307.us.archive.org/3/items/arcade_paddlema/paddlema.zip
939299828 10375 ./ia802307.us.archive.org/3/items/arcade_spdcoin/spdcoin.zip
484878469 73766 ./ia802307.us.archive.org/0/items/arcade_scotrsht/scotrsht.zip
2741276508 92846 ./ia802307.us.archive.org/28/items/arcade_shrike/shrike.zip
3578273892 136252 ./ia802307.us.archive.org/25/items/arcade_skyfox/skyfox.zip
3092837968 51988 ./ia802307.us.archive.org/15/items/arcade_skykid/skykid.zip
4172878722 20459 ./ia802307.us.archive.org/15/items/arcade_spclforc/spclforc.zip
2271126716 20322 ./ia802307.us.archive.org/8/items/arcade_superbon/superbon.zip
214204068 13694 ./ia802307.us.archive.org/17/items/arcade_thepit/thepit.zip
869027965 72739 ./ia802307.us.archive.org/14/items/arcade_wiz/wiz.zip
117281563 121138 ./ia802307.us.archive.org/30/items/arcade_zerotrgt/zerotrgt.zip
4070430086 16939 ./ia802303.us.archive.org/17/items/arcade_amidar/amidar.zip
4279768694 23638 ./ia802303.us.archive.org/17/items/arcade_spacefrt/spacefrt.zip
249239832 26097 ./ia802303.us.archive.org/16/items/arcade_boggy84/boggy84.zip
4216466892 39245 ./ia802303.us.archive.org/16/items/arcade_playball/playball.zip
3325260175 28613 ./ia802303.us.archive.org/4/items/arcade_cclimber/cclimber.zip
3554702363 30515 ./ia802303.us.archive.org/32/items/arcade_dkongjr/dkongjr.zip
676373864 5551 ./ia802303.us.archive.org/8/items/arcade_dragrace/dragrace.zip
1828274464 20599 ./ia802303.us.archive.org/8/items/arcade_ponpoko/ponpoko.zip
3342401463 9647 ./ia802303.us.archive.org/8/items/arcade_sheriff/sheriff.zip
3786934349 33013 ./ia802303.us.archive.org/11/items/arcade_fantasy/fantasy.zip
785797183 23249 ./ia802303.us.archive.org/13/items/arcade_fireone/fireone.zip
2127834010 6190 ./ia802303.us.archive.org/5/items/arcade_flyball/flyball.zip
4131459849 47711 ./ia802303.us.archive.org/1/items/arcade_foodf/foodf.zip
1701939872 26723 ./ia802303.us.archive.org/7/items/arcade_gmgalax/gmgalax.zip
1526890156 18113 ./ia802303.us.archive.org/7/items/arcade_radarscp/radarscp.zip
3555913094 279214 ./ia802303.us.archive.org/34/items/arcade_paperboy/paperboy.zip
3088754395 44864 ./ia802303.us.archive.org/14/items/arcade_sfposeid/sfposeid.zip
1921976071 27539 ./ia802303.us.archive.org/2/items/arcade_thehand/thehand.zip
3371870431 226141 ./ia601400.us.archive.org/33/items/arcade_angelkds/angelkds.zip
3095935931 39944 ./ia601400.us.archive.org/33/items/arcade_curvebal/curvebal.zip
567112653 36978 ./ia601400.us.archive.org/33/items/arcade_gutangtn/gutangtn.zip
2864495257 12375 ./ia601400.us.archive.org/25/items/arcade_bandido/bandido.zip
594137359 224176 ./ia601400.us.archive.org/25/items/arcade_redlin2p/redlin2p.zip
2596107752 341032 ./ia601400.us.archive.org/4/items/arcade_bionicc/bionicc.zip
1210386634 55616 ./ia601400.us.archive.org/4/items/arcade_troangel/troangel.zip
1291985687 969321 ./ia601400.us.archive.org/29/items/arcade_btlfield/btlfield.zip
548544725 29839 ./ia601400.us.archive.org/29/items/arcade_joyfulr/joyfulr.zip
3685394143 12151 ./ia601400.us.archive.org/29/items/arcade_samurai/samurai.zip
2354145635 11803 ./ia601400.us.archive.org/29/items/arcade_sbugger/sbugger.zip
2001348097 35744 ./ia601400.us.archive.org/30/items/arcade_bubbles/bubbles.zip
3951352891 26008 ./ia601400.us.archive.org/30/items/arcade_gravitar/gravitar.zip
2838711541 263039 ./ia601400.us.archive.org/30/items/arcade_legion/legion.zip
3586036536 520742 ./ia601400.us.archive.org/30/items/arcade_roadrunn/roadrunn.zip
3242656150 14432 ./ia601400.us.archive.org/5/items/arcade_checkman/checkman.zip
3736351582 1268455 ./ia601400.us.archive.org/5/items/arcade_gaiden/gaiden.zip
2781196490 208226 ./ia601400.us.archive.org/5/items/arcade_matmania/matmania.zip
100330729 114339 ./ia601400.us.archive.org/5/items/arcade_roishtar/roishtar.zip
1384334064 10608 ./ia601400.us.archive.org/24/items/arcade_cheekyms/cheekyms.zip
3411050768 16701 ./ia601400.us.archive.org/24/items/arcade_kopunch/kopunch.zip
1794426768 423700 ./ia601400.us.archive.org/20/items/arcade_chopper/chopper.zip
3710340304 72295 ./ia601400.us.archive.org/23/items/arcade_cloak/cloak.zip
1754625642 68109 ./ia601400.us.archive.org/35/items/arcade_compgolf/compgolf.zip
3754560263 7457 ./ia601400.us.archive.org/35/items/arcade_digger/digger.zip
311328870 7574 ./ia601400.us.archive.org/17/items/arcade_cosmicg/cosmicg.zip
3025162576 21817 ./ia601400.us.archive.org/16/items/arcade_cosmos/cosmos.zip
2036084600 14226 ./ia601400.us.archive.org/16/items/arcade_nmouse/nmouse.zip
2503352472 222302 ./ia601400.us.archive.org/16/items/arcade_plumppop/plumppop.zip
2719439168 4785 ./ia601400.us.archive.org/12/items/arcade_depthch/depthch.zip
1259956467 63594 ./ia601400.us.archive.org/12/items/arcade_exctscc2/exctscc2.zip
4186761158 42521 ./ia601400.us.archive.org/12/items/arcade_frontlin/frontlin.zip
2381768459 107930 ./ia601400.us.archive.org/12/items/arcade_solomon/solomon.zip
3985024029 30851 ./ia601400.us.archive.org/3/items/arcade_digdug/digdug.zip
933334980 17463 ./ia601400.us.archive.org/3/items/arcade_hotshock/hotshock.zip
2483052723 8352 ./ia601400.us.archive.org/3/items/arcade_invinco/invinco.zip
2985120633 24217 ./ia601400.us.archive.org/34/items/arcade_dogfight/dogfight.zip
1755358320 135297 ./ia601400.us.archive.org/34/items/arcade_sscandal/sscandal.zip
4084205162 61309 ./ia601400.us.archive.org/34/items/arcade_yachtmn/yachtmn.zip
1843954353 57659 ./ia601400.us.archive.org/19/items/arcade_flicky/flicky.zip
1167667521 38769 ./ia601400.us.archive.org/19/items/arcade_mermaid/mermaid.zip
1830679099 16939 ./ia601400.us.archive.org/19/items/arcade_rescue/rescue.zip
2042987507 88972 ./ia601400.us.archive.org/27/items/arcade_flstory/flstory.zip
760697533 610609 ./ia601400.us.archive.org/27/items/arcade_gbusters/gbusters.zip
470888710 86199 ./ia601400.us.archive.org/27/items/arcade_greatgun/greatgun.zip
627308957 1096501 ./ia601400.us.archive.org/27/items/arcade_ledstorm/ledstorm.zip
246451456 39866 ./ia601400.us.archive.org/11/items/arcade_flyboy/flyboy.zip
3117793848 4226 ./ia601400.us.archive.org/11/items/arcade_starcrus/starcrus.zip
2267059733 420793 ./ia601400.us.archive.org/13/items/arcade_garyoret/garyoret.zip
2647470800 95981 ./ia601400.us.archive.org/13/items/arcade_shtridera/shtridera.zip
776725808 519047 ./ia601400.us.archive.org/13/items/arcade_thunderx/thunderx.zip
717295846 370683 ./ia601400.us.archive.org/6/items/arcade_gemini/gemini.zip
864142542 20864 ./ia601400.us.archive.org/6/items/arcade_zodiack/zodiack.zip
277658666 86115 ./ia601400.us.archive.org/2/items/arcade_gridiron/gridiron.zip
3883361635 368019 ./ia601400.us.archive.org/18/items/arcade_karnov/karnov.zip
3520868799 219787 ./ia601400.us.archive.org/18/items/arcade_ninjemak/ninjemak.zip
1710594567 22066 ./ia601400.us.archive.org/8/items/arcade_mayday/mayday.zip
2791347161 164384 ./ia601400.us.archive.org/7/items/arcade_mnight/mnight.zip
3422448903 77546 ./ia601400.us.archive.org/14/items/arcade_regulus/regulus.zip
692846805 5711 ./ia601400.us.archive.org/0/items/arcade_spacbeam/spacbeam.zip
3089012068 402536 ./ia601400.us.archive.org/0/items/arcade_xsleena/xsleena.zip
2467983879 28309 ./ia601400.us.archive.org/9/items/arcade_spacfury/spacfury.zip
4246337096 45208 ./ia601400.us.archive.org/32/items/arcade_spiker/spiker.zip
41608283 7170 ./ia601400.us.archive.org/26/items/arcade_sstrangr/sstrangr.zip
917582728 86072 ./ia601400.us.archive.org/10/items/arcade_timber/timber.zip
74041933 15072 ./ia801401.us.archive.org/9/items/arcade_anteater/anteater.zip
2699052268 34667 ./ia801401.us.archive.org/9/items/arcade_hwrace/hwrace.zip
519173762 5012 ./ia801401.us.archive.org/22/items/arcade_avalnche/avalnche.zip
3334640783 10925 ./ia801401.us.archive.org/22/items/arcade_dingo/dingo.zip
505508447 5433 ./ia801401.us.archive.org/22/items/arcade_rotaryf/rotaryf.zip
2380358294 68148 ./ia801401.us.archive.org/20/items/arcade_baluba/baluba.zip
4070938605 44038 ./ia801401.us.archive.org/20/items/arcade_junofrst/junofrst.zip
2365800417 47075 ./ia801401.us.archive.org/20/items/arcade_ninjakun/ninjakun.zip
2276405516 8797 ./ia801401.us.archive.org/20/items/arcade_orbit/orbit.zip
316571316 20455 ./ia801401.us.archive.org/20/items/arcade_superbik/superbik.zip
2354360435 115845 ./ia801401.us.archive.org/28/items/arcade_battlane/battlane.zip
2321063 50129 ./ia801401.us.archive.org/28/items/arcade_metrocrs/metrocrs.zip
772376854 7975 ./ia801401.us.archive.org/28/items/arcade_spacelnc/spacelnc.zip
483509644 5895 ./ia801401.us.archive.org/15/items/arcade_beaminv/beaminv.zip
2157678166 75318 ./ia801401.us.archive.org/15/items/arcade_tshoot/tshoot.zip
3439737171 55435 ./ia801401.us.archive.org/15/items/arcade_vangrd2/vangrd2.zip
1729213771 89829 ./ia801401.us.archive.org/29/items/arcade_bullfgtr/bullfgtr.zip
736452924 135332 ./ia801401.us.archive.org/29/items/arcade_commando/commando.zip
3919272353 3551819 ./ia801401.us.archive.org/29/items/arcade_sf2/sf2.zip
3037452042 27400 ./ia801401.us.archive.org/14/items/arcade_bwidow/bwidow.zip
323505023 26182 ./ia801401.us.archive.org/14/items/arcade_darkplnt/darkplnt.zip
2437216749 56111 ./ia801401.us.archive.org/14/items/arcade_fcombat/fcombat.zip
405805632 51238 ./ia801401.us.archive.org/14/items/arcade_kamikcab/kamikcab.zip
1448322776 124962 ./ia801401.us.archive.org/14/items/arcade_nycaptor/nycaptor.zip
1344049927 27763 ./ia801401.us.archive.org/14/items/arcade_popper/popper.zip
568420007 33464 ./ia801401.us.archive.org/14/items/arcade_unclepoo/unclepoo.zip
931758192 19674 ./ia801401.us.archive.org/16/items/arcade_calipso/calipso.zip
3021996270 3510 ./ia801401.us.archive.org/10/items/arcade_canyon/canyon.zip
1649822820 29070 ./ia801401.us.archive.org/10/items/arcade_jrpacman/jrpacman.zip
2283475517 28188 ./ia801401.us.archive.org/10/items/arcade_jumpbug/jumpbug.zip
1806342304 57954 ./ia801401.us.archive.org/10/items/arcade_zaviga/zaviga.zip
2361879011 17239 ./ia801401.us.archive.org/26/items/arcade_cavelon/cavelon.zip
1076864203 25644 ./ia801401.us.archive.org/26/items/arcade_wanted/wanted.zip
2892043404 36528 ./ia801401.us.archive.org/17/items/arcade_chaknpop/chaknpop.zip
3175342735 10532 ./ia801401.us.archive.org/17/items/arcade_sprint2/sprint2.zip
2681474913 78523 ./ia801401.us.archive.org/17/items/arcade_tryout/tryout.zip
670209317 5679 ./ia801401.us.archive.org/7/items/arcade_copsnrob/copsnrob.zip
2607518750 17699 ./ia801401.us.archive.org/7/items/arcade_thief/thief.zip
1269405790 20114 ./ia801401.us.archive.org/1/items/arcade_darkwar/darkwar.zip
3325266086 38601 ./ia801401.us.archive.org/1/items/arcade_timetunl/timetunl.zip
3609770087 18079 ./ia801401.us.archive.org/6/items/arcade_dday/dday.zip
3824893170 14496 ./ia801401.us.archive.org/6/items/arcade_sasuke/sasuke.zip
3047234120 358619 ./ia801401.us.archive.org/4/items/arcade_ddribble/ddribble.zip
902319335 21449 ./ia801401.us.archive.org/4/items/arcade_leprechn/leprechn.zip
713751501 13059 ./ia801401.us.archive.org/4/items/arcade_wallc/wallc.zip
1597467621 12470 ./ia801401.us.archive.org/24/items/arcade_devzone/devzone.zip
603803649 13361 ./ia801401.us.archive.org/24/items/arcade_theend/theend.zip
658213741 15733 ./ia801401.us.archive.org/31/items/arcade_eggor/eggor.zip
339134497 53680 ./ia801401.us.archive.org/31/items/arcade_holeland/holeland.zip
300847072 22747 ./ia801401.us.archive.org/31/items/arcade_looping/looping.zip
4059767661 33801 ./ia801401.us.archive.org/31/items/arcade_todruaga/todruaga.zip
1430031002 16543 ./ia801401.us.archive.org/35/items/arcade_eyes/eyes.zip
2171060439 198471 ./ia801401.us.archive.org/32/items/arcade_fax/fax.zip
2332345729 81222 ./ia801401.us.archive.org/32/items/arcade_spatter/spatter.zip
173761212 8256 ./ia801401.us.archive.org/23/items/arcade_fgoal/fgoal.zip
3942367155 256265 ./ia801401.us.archive.org/33/items/arcade_firetrap/firetrap.zip
2038278354 16815 ./ia801401.us.archive.org/33/items/arcade_slither/slither.zip
468142049 38373 ./ia801401.us.archive.org/13/items/arcade_formatz/formatz.zip
3245348887 241289 ./ia801401.us.archive.org/12/items/arcade_gradius/gradius.zip
502162486 33608 ./ia801401.us.archive.org/12/items/arcade_kikstart/kikstart.zip
3968939546 79216 ./ia801401.us.archive.org/12/items/arcade_lkage/lkage.zip
3651936523 59264 ./ia801401.us.archive.org/12/items/arcade_ringfgt/ringfgt.zip
304543023 34886 ./ia801401.us.archive.org/12/items/arcade_sbagman/sbagman.zip
1664920869 97550 ./ia801401.us.archive.org/12/items/arcade_twinbee/twinbee.zip
1260785631 388693 ./ia801401.us.archive.org/19/items/arcade_hangon/hangon.zip
182888819 82947 ./ia801401.us.archive.org/19/items/arcade_tubep/tubep.zip
4292760013 67017 ./ia801401.us.archive.org/18/items/arcade_inferno/inferno.zip
3825596783 26976 ./ia801401.us.archive.org/18/items/arcade_jack/jack.zip
2875424025 44356 ./ia801401.us.archive.org/18/items/arcade_sindbadm/sindbadm.zip
4040573280 36543 ./ia801401.us.archive.org/18/items/arcade_stargate/stargate.zip
3112054353 56008 ./ia801401.us.archive.org/18/items/arcade_transfrm/transfrm.zip
36003775 44209 ./ia801401.us.archive.org/3/items/arcade_jjack/jjack.zip
2160794907 68117 ./ia801401.us.archive.org/3/items/arcade_journey/journey.zip
3741073244 22550 ./ia801401.us.archive.org/3/items/arcade_megadon/megadon.zip
1854094597 8292 ./ia801401.us.archive.org/3/items/arcade_wolfpack/wolfpack.zip
3723210586 29696 ./ia801401.us.archive.org/25/items/arcade_kangaroo/kangaroo.zip
2671218191 131512 ./ia801401.us.archive.org/21/items/arcade_kingofb/kingofb.zip
1788676688 47142 ./ia801401.us.archive.org/21/items/arcade_xevious/xevious.zip
3406090410 30971 ./ia801401.us.archive.org/0/items/arcade_liberatr/liberatr.zip
1456330216 65825 ./ia801401.us.archive.org/0/items/arcade_sbasketb/sbasketb.zip
3059275965 18575 ./ia801401.us.archive.org/11/items/arcade_pballoon/pballoon.zip
2571661065 4661 ./ia801401.us.archive.org/27/items/arcade_sbrkout/sbrkout.zip
3946786707 755119 ./ia801401.us.archive.org/8/items/arcade_sharrier/sharrier.zip
120958014 5092 ./ia801401.us.archive.org/8/items/arcade_sspeedr/sspeedr.zip
648000032 7484 ./ia801401.us.archive.org/34/items/arcade_spacefev/spacefev.zip
1658492336 52647 ./ia801401.us.archive.org/34/items/arcade_tp84/tp84.zip
376006051 121145 ./ia802304.us.archive.org/26/items/arcade_appoooh/appoooh.zip
1662716950 3051987 ./ia802304.us.archive.org/26/items/arcade_narc2/narc2.zip
309906040 360614 ./ia802304.us.archive.org/1/items/arcade_archrivl/archrivl.zip
3278548511 14723 ./ia802304.us.archive.org/1/items/arcade_mole/mole.zip
910191688 358507 ./ia802304.us.archive.org/32/items/arcade_avengers/avengers.zip
3925515334 531842 ./ia802304.us.archive.org/32/items/arcade_hbarrel/hbarrel.zip
1978179552 23891 ./ia802304.us.archive.org/32/items/arcade_sucasino/sucasino.zip
3949483225 35559 ./ia802304.us.archive.org/20/items/arcade_cchasm/cchasm.zip
1456318787 43333 ./ia802304.us.archive.org/20/items/arcade_cshift/cshift.zip
5938472 44922 ./ia802304.us.archive.org/20/items/arcade_zookeep/zookeep.zip
516927996 512238 ./ia802304.us.archive.org/8/items/arcade_chukatai/chukatai.zip
3983615657 415304 ./ia802304.us.archive.org/8/items/arcade_quarterb/quarterb.zip
2100271489 326550 ./ia802304.us.archive.org/9/items/arcade_cobracom/cobracom.zip
2377927188 110579 ./ia802304.us.archive.org/30/items/arcade_dualaslt/dualaslt.zip
2118432773 92950 ./ia802304.us.archive.org/30/items/arcade_newtangl/newtangl.zip
1053451741 39159 ./ia802304.us.archive.org/10/items/arcade_exerion/exerion.zip
3762563362 27007 ./ia802304.us.archive.org/10/items/arcade_mouser/mouser.zip
4264979823 36852 ./ia802304.us.archive.org/16/items/arcade_funnymou/funnymou.zip
2673682608 97952 ./ia802304.us.archive.org/16/items/arcade_metlclsh/metlclsh.zip
2254122474 126732 ./ia802304.us.archive.org/34/items/arcade_gwarrior/gwarrior.zip
1780116489 97741 ./ia802304.us.archive.org/34/items/arcade_idsoccer/idsoccer.zip
3987246606 65671 ./ia802304.us.archive.org/29/items/arcade_gyrodine/gyrodine.zip
1069994483 67130 ./ia802304.us.archive.org/31/items/arcade_jcross/jcross.zip
2562527609 92575 ./ia802304.us.archive.org/2/items/arcade_kungfum/kungfum.zip
3804188897 105624 ./ia802304.us.archive.org/2/items/arcade_tnk3/tnk3.zip
1213734075 81027 ./ia802304.us.archive.org/24/items/arcade_motorace/motorace.zip
1786761254 16653 ./ia802304.us.archive.org/24/items/arcade_superpac/superpac.zip
91558895 39030 ./ia802304.us.archive.org/6/items/arcade_motos/motos.zip
753169150 16591 ./ia802304.us.archive.org/23/items/arcade_mrtnt/mrtnt.zip
325150497 29266 ./ia802304.us.archive.org/23/items/arcade_ssrj/ssrj.zip
2094857156 86603 ./ia802304.us.archive.org/14/items/arcade_mystston/mystston.zip
3949420121 31299 ./ia802304.us.archive.org/17/items/arcade_otwalls/otwalls.zip
530668327 95944 ./ia802304.us.archive.org/33/items/arcade_powrplay/powrplay.zip
3444512218 34838 ./ia802304.us.archive.org/0/items/arcade_raiders5/raiders5.zip
619498957 22019 ./ia802304.us.archive.org/13/items/arcade_springer/springer.zip
1891041782 121285 ./ia802304.us.archive.org/27/items/arcade_sstingry/sstingry.zip
281138926 34509 ./ia802304.us.archive.org/7/items/arcade_swimmer/swimmer.zip
1564647716 311744 ./ia802304.us.archive.org/7/items/arcade_xybots/xybots.zip
4105747852 44031 ./ia802304.us.archive.org/21/items/arcade_travrusa/travrusa.zip
2261226849 36185 ./ia802304.us.archive.org/18/items/arcade_wwjgtin/wwjgtin.zip
452308386 33257 ./ia802304.us.archive.org/3/items/arcade_zoar/zoar.zip
144184971 40849 ./ia601401.us.archive.org/20/items/arcade_argusg/argusg.zip
3218894820 7812 ./ia601401.us.archive.org/32/items/arcade_bsktball/bsktball.zip
1621836319 183843 ./ia601401.us.archive.org/8/items/arcade_bublbobl/bublbobl.zip
1117932109 28065 ./ia601401.us.archive.org/8/items/arcade_ccastles/ccastles.zip
3875101153 96998 ./ia601401.us.archive.org/11/items/arcade_buggychl/buggychl.zip
3233626371 178840 ./ia601401.us.archive.org/24/items/arcade_colt/colt.zip
1749334043 60346 ./ia601401.us.archive.org/24/items/arcade_drgnbstr/drgnbstr.zip
2601377232 10667 ./ia601401.us.archive.org/24/items/arcade_sbowling/sbowling.zip
133359467 678099 ./ia601401.us.archive.org/10/items/arcade_enduror/enduror.zip
1446893809 22127 ./ia601401.us.archive.org/29/items/arcade_hero/hero.zip
557764327 72622 ./ia601401.us.archive.org/29/items/arcade_msisaac/msisaac.zip
1397971663 22421 ./ia601401.us.archive.org/29/items/arcade_newsin7/newsin7.zip
297442995 49923 ./ia601401.us.archive.org/16/items/arcade_monsterb/monsterb.zip
91131880 16231 ./ia601401.us.archive.org/13/items/arcade_moonwar/moonwar.zip
583894539 347496 ./ia601401.us.archive.org/7/items/arcade_ogonsiro/ogonsiro.zip
1931086745 46583 ./ia601401.us.archive.org/31/items/arcade_qbertqub/qbertqub.zip
992783449 51688 ./ia601401.us.archive.org/34/items/arcade_screwloo/screwloo.zip
3229310874 50649 ./ia601401.us.archive.org/34/items/arcade_sinistar/sinistar.zip
1480805589 5513 ./ia601401.us.archive.org/25/items/arcade_sidetrac/sidetrac.zip
2860510634 22018 ./ia601401.us.archive.org/2/items/arcade_stratgyx/stratgyx.zip
1228708782 83652 ./ia601401.us.archive.org/23/items/arcade_teddybb/teddybb.zip
4050691815 20581 ./ia601401.us.archive.org/30/items/arcade_tempest/tempest.zip
3509995944 131606 ./ia601401.us.archive.org/27/items/arcade_terracre/terracre.zip
4060470498 72150 ./ia802309.us.archive.org/27/items/arcade_arkanoid/arkanoid.zip
678700660 111076 ./ia802309.us.archive.org/17/items/arcade_blaster/blaster.zip
3525464320 65844 ./ia802309.us.archive.org/6/items/arcade_gberet/gberet.zip
3034055658 28424 ./ia802309.us.archive.org/18/items/arcade_mappy/mappy.zip
3042913361 877001 ./ia802309.us.archive.org/13/items/arcade_outrun/outrun.zip
3615974730 15728 ./ia802309.us.archive.org/10/items/arcade_panic/panic.zip
718902644 12992 ./ia802309.us.archive.org/33/items/arcade_pulsar/pulsar.zip
1846135219 15560 ./ia802309.us.archive.org/1/items/arcade_supdrapo/supdrapo.zip
1063526212 175681 ./ia601405.us.archive.org/32/items/arcade_arkarea/arkarea.zip
2154269603 167195 ./ia601405.us.archive.org/21/items/arcade_dangar/dangar.zip
3580996434 1401343 ./ia601405.us.archive.org/9/items/arcade_darkadv/darkadv.zip
503720342 338876 ./ia601405.us.archive.org/19/items/arcade_f1dream/f1dream.zip
3000237262 376911 ./ia601405.us.archive.org/19/items/arcade_terraf/terraf.zip
4210561429 123197 ./ia601405.us.archive.org/25/items/arcade_fitegolf/fitegolf.zip
935940457 454897 ./ia601405.us.archive.org/5/items/arcade_flkatck/flkatck.zip
3767306167 196226 ./ia601405.us.archive.org/5/items/arcade_ikari/ikari.zip
442396766 228842 ./ia601405.us.archive.org/34/items/arcade_lwings/lwings.zip
3942403722 262433 ./ia601405.us.archive.org/13/items/arcade_maniach/maniach.zip
277139667 691577 ./ia601405.us.archive.org/13/items/arcade_shangon/shangon.zip
943395929 885091 ./ia601405.us.archive.org/18/items/arcade_raimais/raimais.zip
1206142313 137050 ./ia601405.us.archive.org/10/items/arcade_sauro/sauro.zip
1445419017 1079965 ./ia601405.us.archive.org/15/items/arcade_shadoww/shadoww.zip
2741567387 206744 ./ia601405.us.archive.org/11/items/arcade_wbml/wbml.zip
2763550331 34688 ./ia902305.us.archive.org/27/items/arcade_astrob/astrob.zip
691267387 18413 ./ia902305.us.archive.org/27/items/arcade_porky/porky.zip
901490477 388410 ./ia902305.us.archive.org/24/items/arcade_contra/contra.zip
1259301360 10327 ./ia902305.us.archive.org/24/items/arcade_galaxian/galaxian.zip
1309486728 490501 ./ia902305.us.archive.org/24/items/arcade_gwar/gwar.zip
2783297447 639925 ./ia902305.us.archive.org/11/items/arcade_devstors/devstors.zip
1538148985 476932 ./ia902305.us.archive.org/11/items/arcade_kittenk/kittenk.zip
613294033 259547 ./ia902305.us.archive.org/11/items/arcade_ringking/ringking.zip
4057517883 28494 ./ia902305.us.archive.org/11/items/arcade_timeplt/timeplt.zip
2550538114 103720 ./ia902305.us.archive.org/5/items/arcade_goindol/goindol.zip
4275205084 64224 ./ia902305.us.archive.org/5/items/arcade_pitfall2/pitfall2.zip
3820291567 242208 ./ia902305.us.archive.org/25/items/arcade_gunsmoke/gunsmoke.zip
345552244 149724 ./ia902305.us.archive.org/25/items/arcade_hvymetal/hvymetal.zip
3300799458 47951 ./ia902305.us.archive.org/25/items/arcade_shtrider/shtrider.zip
2590986792 19711 ./ia902305.us.archive.org/14/items/arcade_jumpshot/jumpshot.zip
114731205 164296 ./ia902305.us.archive.org/2/items/arcade_lsasquad/lsasquad.zip
2289395615 39037 ./ia902305.us.archive.org/4/items/arcade_mastkin/mastkin.zip
3288444339 287403 ./ia902305.us.archive.org/12/items/arcade_oscarj1/oscarj1.zip
4067627711 330571 ./ia902305.us.archive.org/8/items/arcade_ssprint/ssprint.zip
2348809663 17260 ./ia902305.us.archive.org/3/items/arcade_strtheat/strtheat.zip
3356043784 867795 ./ia902305.us.archive.org/21/items/arcade_tndrcadej/tndrcadej.zip
1513349163 361601 ./ia902305.us.archive.org/23/items/arcade_wldcourt/wldcourt.zip
3495883353 408437 ./ia902305.us.archive.org/6/items/arcade_wndrplnt/wndrplnt.zip
92348291 145376 ./ia801400.us.archive.org/31/items/arcade_athena/athena.zip
215702539 69934 ./ia801400.us.archive.org/31/items/arcade_nstocker/nstocker.zip
145082893 20677 ./ia801400.us.archive.org/31/items/arcade_scobra/scobra.zip
2217979154 132687 ./ia801400.us.archive.org/18/items/arcade_basebal2/basebal2.zip
1729987643 73442 ./ia801400.us.archive.org/18/items/arcade_mainsnk/mainsnk.zip
3677453525 28930 ./ia801400.us.archive.org/18/items/arcade_marvins/marvins.zip
4103622144 27018 ./ia801400.us.archive.org/18/items/arcade_natodef/natodef.zip
2410475517 625484 ./ia801400.us.archive.org/29/items/arcade_bchopper/bchopper.zip
266057852 62548 ./ia801400.us.archive.org/29/items/arcade_bullfgt/bullfgt.zip
1462559367 97049 ./ia801400.us.archive.org/22/items/arcade_benberob/benberob.zip
1136572092 20311 ./ia801400.us.archive.org/22/items/arcade_losttomb/losttomb.zip
1012160653 35311 ./ia801400.us.archive.org/4/items/arcade_bioatack/bioatack.zip
955012224 78755 ./ia801400.us.archive.org/4/items/arcade_pbaction/pbaction.zip
537099690 23764 ./ia801400.us.archive.org/4/items/arcade_savanna/savanna.zip
1516867567 131057 ./ia801400.us.archive.org/4/items/arcade_wseries/wseries.zip
2396513439 39976 ./ia801400.us.archive.org/7/items/arcade_bosco/bosco.zip
2248381848 404457 ./ia801400.us.archive.org/7/items/arcade_tdfever/tdfever.zip
3409794746 22781 ./ia801400.us.archive.org/7/items/arcade_wallst/wallst.zip
1393382724 92798 ./ia801400.us.archive.org/14/items/arcade_brain/brain.zip
4258064442 47056 ./ia801400.us.archive.org/14/items/arcade_champbas/champbas.zip
3903314922 241471 ./ia801400.us.archive.org/14/items/arcade_sboblbob/sboblbob.zip
430916584 669629 ./ia801400.us.archive.org/16/items/arcade_chinagat/chinagat.zip
764856613 14260 ./ia801400.us.archive.org/16/items/arcade_hustler/hustler.zip
1541793752 52910 ./ia801400.us.archive.org/16/items/arcade_vastar/vastar.zip
1118484933 33330 ./ia801400.us.archive.org/34/items/arcade_complexx/complexx.zip
1283535312 11294 ./ia801400.us.archive.org/12/items/arcade_cosmica/cosmica.zip
2310260936 34249 ./ia801400.us.archive.org/12/items/arcade_tacscan/tacscan.zip
2774434623 23390 ./ia801400.us.archive.org/0/items/arcade_defender/defender.zip
3753613353 43784 ./ia801400.us.archive.org/0/items/arcade_mplanets/mplanets.zip
1584727145 14670 ./ia801400.us.archive.org/0/items/arcade_nrallyx/nrallyx.zip
4290215804 68665 ./ia801400.us.archive.org/24/items/arcade_demoderb/demoderb.zip
2862897479 31822 ./ia801400.us.archive.org/24/items/arcade_higemaru/higemaru.zip
4124353999 12891 ./ia801400.us.archive.org/24/items/arcade_speakres/speakres.zip
937065025 25511 ./ia801400.us.archive.org/28/items/arcade_dommy/dommy.zip
2858828799 16604 ./ia801400.us.archive.org/28/items/arcade_marinedt/marinedt.zip
2169520885 47579 ./ia801400.us.archive.org/28/items/arcade_strnskil/strnskil.zip
33480378 23276 ./ia801400.us.archive.org/30/items/arcade_dorodon/dorodon.zip
58682241 107469 ./ia801400.us.archive.org/30/items/arcade_spelunkr/spelunkr.zip
718863524 45682 ./ia801400.us.archive.org/3/items/arcade_dorunrun/dorunrun.zip
592742130 83575 ./ia801400.us.archive.org/3/items/arcade_ridleofp/ridleofp.zip
3496312760 15461 ./ia801400.us.archive.org/26/items/arcade_dribling/dribling.zip
1150273405 165004 ./ia801400.us.archive.org/26/items/arcade_exprraid/exprraid.zip
1438886925 3118 ./ia801400.us.archive.org/26/items/arcade_hitme/hitme.zip
2588500058 28377 ./ia801400.us.archive.org/15/items/arcade_friskyt/friskyt.zip
3278388431 54683 ./ia801400.us.archive.org/15/items/arcade_myqbert/myqbert.zip
978659183 18531 ./ia801400.us.archive.org/15/items/arcade_shootgal/shootgal.zip
3109063567 20963 ./ia801400.us.archive.org/20/items/arcade_heartatk/heartatk.zip
3585512649 10248 ./ia801400.us.archive.org/32/items/arcade_helifire/helifire.zip
3711318039 22269 ./ia801400.us.archive.org/32/items/arcade_skybase/skybase.zip
1814437288 16655 ./ia801400.us.archive.org/32/items/arcade_survival/survival.zip
3215699980 87060 ./ia801400.us.archive.org/11/items/arcade_irobot/irobot.zip
471037255 123259 ./ia801400.us.archive.org/11/items/arcade_mustache/mustache.zip
998335367 464558 ./ia801400.us.archive.org/33/items/arcade_kickoff/kickoff.zip
3868903046 37835 ./ia801400.us.archive.org/9/items/arcade_kickridr/kickridr.zip
2093639322 60665 ./ia801400.us.archive.org/9/items/arcade_minigolf/minigolf.zip
933180145 20219 ./ia801400.us.archive.org/17/items/arcade_lasso/lasso.zip
3758857161 18267 ./ia801400.us.archive.org/17/items/arcade_uniwars/uniwars.zip
1673705010 47197 ./ia801400.us.archive.org/8/items/arcade_ldrun/ldrun.zip
4032342324 58714 ./ia801400.us.archive.org/8/items/arcade_monymony/monymony.zip
3563803718 80394 ./ia801400.us.archive.org/8/items/arcade_mysticm/mysticm.zip
2602037730 17693 ./ia801400.us.archive.org/10/items/arcade_machomou/machomou.zip
438232602 15460 ./ia801400.us.archive.org/1/items/arcade_madalien/madalien.zip
1361849639 5228 ./ia801400.us.archive.org/1/items/arcade_tourtabl/tourtabl.zip
1829760989 24169 ./ia801400.us.archive.org/5/items/arcade_marineb/marineb.zip
4232004164 1556575 ./ia801400.us.archive.org/19/items/arcade_mirninja/mirninja.zip
610428728 48446 ./ia801400.us.archive.org/19/items/arcade_tron/tron.zip
1178459256 31821 ./ia801400.us.archive.org/19/items/arcade_yamato/yamato.zip
116561878 88587 ./ia801400.us.archive.org/25/items/arcade_rescraid/rescraid.zip
1640914202 337558 ./ia801400.us.archive.org/25/items/arcade_silkworm/silkworm.zip
3188519268 46452 ./ia801400.us.archive.org/23/items/arcade_scion/scion.zip
3216230930 147129 ./ia801400.us.archive.org/23/items/arcade_shangkid/shangkid.zip
1510695597 6920 ./ia801400.us.archive.org/23/items/arcade_skydiver/skydiver.zip
180745934 40703 ./ia801400.us.archive.org/6/items/arcade_wacko/wacko.zip
1817635218 32536 ./ia802306.us.archive.org/35/items/arcade_aztarac/aztarac.zip
1823913202 58666 ./ia802306.us.archive.org/35/items/arcade_swat/swat.zip
1988385447 19905 ./ia802306.us.archive.org/16/items/arcade_botanic/botanic.zip
1022895940 76771 ./ia802306.us.archive.org/16/items/arcade_speedbal/speedbal.zip
3133893564 48749 ./ia802306.us.archive.org/0/items/arcade_crgolf/crgolf.zip
1541936700 24690 ./ia802306.us.archive.org/0/items/arcade_talbot/talbot.zip
191796930 48630 ./ia802306.us.archive.org/9/items/arcade_ddayjlc/ddayjlc.zip
1933472334 19960 ./ia802306.us.archive.org/9/items/arcade_hardhat/hardhat.zip
673136034 233957 ./ia802306.us.archive.org/10/items/arcade_empcity/empcity.zip
4154479328 32891 ./ia802306.us.archive.org/10/items/arcade_sdungeon/sdungeon.zip
892835600 446551 ./ia802306.us.archive.org/19/items/arcade_gryzor/gryzor.zip
170730310 208085 ./ia802306.us.archive.org/19/items/arcade_lastmisn/lastmisn.zip
2895383071 69696 ./ia802306.us.archive.org/19/items/arcade_mhavoc/mhavoc.zip
1247673723 63978 ./ia802306.us.archive.org/17/items/arcade_guiness/guiness.zip
2276227382 1831025 ./ia802306.us.archive.org/17/items/arcade_othunder/othunder.zip
2376101400 33859 ./ia802306.us.archive.org/2/items/arcade_ixion/ixion.zip
3544859368 86366 ./ia802306.us.archive.org/21/items/arcade_ldrun3/ldrun3.zip
1739039895 21770 ./ia802306.us.archive.org/4/items/arcade_logger/logger.zip
699977081 8933 ./ia802306.us.archive.org/14/items/arcade_ozon1/ozon1.zip
3119673012 63651 ./ia802306.us.archive.org/32/items/arcade_pbillian/pbillian.zip
1112674395 17183 ./ia802306.us.archive.org/29/items/arcade_pleiads/pleiads.zip
3593362406 49146 ./ia802306.us.archive.org/29/items/arcade_starjack/starjack.zip
74169913 20763 ./ia802306.us.archive.org/1/items/arcade_radarzon/radarzon.zip
1413745986 377947 ./ia802306.us.archive.org/34/items/arcade_rallybik/rallybik.zip
4111351122 46975 ./ia802306.us.archive.org/34/items/arcade_sfootbal/sfootbal.zip
1862350207 71254 ./ia802306.us.archive.org/34/items/arcade_tankbust/tankbust.zip
3365302248 136512 ./ia802306.us.archive.org/5/items/arcade_spelunk2/spelunk2.zip
1709983343 141696 ./ia802306.us.archive.org/27/items/arcade_sqix/sqix.zip
3961025022 83240 ./ia802306.us.archive.org/22/items/arcade_starforc/starforc.zip
853430646 18721 ./ia802306.us.archive.org/15/items/arcade_vanvan/vanvan.zip
911387294 21224 ./ia902303.us.archive.org/2/items/arcade_battlex/battlex.zip
2014598760 7550 ./ia902303.us.archive.org/2/items/arcade_ipminvad/ipminvad.zip
2108491658 3861 ./ia902303.us.archive.org/2/items/arcade_poolshrk/poolshrk.zip
2686484594 13085 ./ia902303.us.archive.org/27/items/arcade_berzerk/berzerk.zip
3218847915 48975 ./ia902303.us.archive.org/16/items/arcade_bking3/bking3.zip
2595647676 3935 ./ia902303.us.archive.org/5/items/arcade_embargo/embargo.zip
1942329014 16011 ./ia902303.us.archive.org/7/items/arcade_frogger/frogger.zip
2814168559 16075 ./ia902303.us.archive.org/7/items/arcade_kingball/kingball.zip
3374190866 11091 ./ia902303.us.archive.org/8/items/arcade_killcom/killcom.zip
3371115076 13044 ./ia902303.us.archive.org/24/items/arcade_meteor/meteor.zip
1748148128 9303 ./ia902303.us.archive.org/15/items/arcade_mgolf/mgolf.zip
3838043187 10831 ./ia902303.us.archive.org/33/items/arcade_missile/missile.zip
140475622 16988 ./ia902303.us.archive.org/18/items/arcade_moonqsr/moonqsr.zip
3290364456 18161 ./ia902303.us.archive.org/17/items/arcade_nibbler/nibbler.zip
638696679 22906 ./ia902303.us.archive.org/32/items/arcade_qix2/qix2.zip
468566741 46019 ./ia902303.us.archive.org/32/items/arcade_shollow/shollow.zip
3308843763 16770 ./ia902303.us.archive.org/0/items/arcade_starfire/starfire.zip
1895855995 12993 ./ia902303.us.archive.org/13/items/arcade_zerohour/zerohour.zip
627526027 56902 ./ia902309.us.archive.org/21/items/arcade_bombjack/bombjack.zip
1350907766 22379 ./ia902309.us.archive.org/12/items/arcade_elim2/elim2.zip
708369885 24142 ./ia902309.us.archive.org/1/items/arcade_mpatrol/mpatrol.zip
4002779667 16359 ./ia902309.us.archive.org/19/items/arcade_phoenix/phoenix.zip
1052978481 14045 ./ia802301.us.archive.org/0/items/arcade_carnival/carnival.zip
4248979112 15600 ./ia802301.us.archive.org/0/items/arcade_turtles/turtles.zip
1442673199 11105 ./ia802301.us.archive.org/23/items/arcade_crbaloon/crbaloon.zip
3458395580 18678 ./ia802301.us.archive.org/19/items/arcade_nyny/nyny.zip
3854196250 88430 ./ia802301.us.archive.org/10/items/arcade_tapper/tapper.zip
686308581 13883 ./ia802301.us.archive.org/8/items/arcade_tranqgun/tranqgun.zip
1535619788 633828 ./ia902308.us.archive.org/14/items/arcade_fastlane/fastlane.zip
2292310012 153123 ./ia902308.us.archive.org/14/items/arcade_kicknrun/kicknrun.zip
2890732257 284787 ./ia902308.us.archive.org/13/items/arcade_fshark/fshark.zip
1483216894 38861 ./ia902308.us.archive.org/10/items/arcade_gimeabrk/gimeabrk.zip
1684044247 158211 ./ia902308.us.archive.org/27/items/arcade_gng/gng.zip
883909165 939032 ./ia902308.us.archive.org/27/items/arcade_vulcan/vulcan.zip
3255705761 408322 ./ia902308.us.archive.org/5/items/arcade_gondo/gondo.zip
1072003086 1519633 ./ia902308.us.archive.org/5/items/arcade_phelios/phelios.zip
3170067749 83414 ./ia902308.us.archive.org/3/items/arcade_konamigt/konamigt.zip
2311829401 403852 ./ia902308.us.archive.org/3/items/arcade_robocop/robocop.zip
3025341840 78605 ./ia902308.us.archive.org/4/items/arcade_ksayakyu/ksayakyu.zip
2354425014 19782 ./ia902308.us.archive.org/35/items/arcade_lizwiz/lizwiz.zip
3209442217 716099 ./ia902308.us.archive.org/12/items/arcade_p47/p47.zip
3852068541 22382 ./ia902308.us.archive.org/25/items/arcade_pingpong/pingpong.zip
1648378211 621457 ./ia902308.us.archive.org/6/items/arcade_robokid/robokid.zip
1354566475 96861 ./ia902308.us.archive.org/17/items/arcade_tigerh/tigerh.zip
3170733306 140180 ./ia902308.us.archive.org/7/items/arcade_xxmissio/xxmissio.zip
1774926113 24322 ./ia802606.us.archive.org/31/items/arcade_gorf/gorf.zip
2583415088 12416 ./ia902301.us.archive.org/10/items/arcade_megatack/megatack.zip
4037684486 78469 ./ia902301.us.archive.org/7/items/arcade_mikie/mikie.zip
1552179702 14213 ./ia902301.us.archive.org/15/items/arcade_spacetrk/spacetrk.zip
3935483296 340954 ./ia902301.us.archive.org/12/items/arcade_victroad/victroad.zip
4124067480 2669336 ./ia902605.us.archive.org/32/items/arcade_pauline/dkong.zip
